Generation: 99		Mean: 0.2499514		Best: 0.3426723		Worst: 0		Standard Deviation: 0.07009719
Generation: 199		Mean: 0.1734096		Best: 0.2683909		Worst: 0		Standard Deviation: 0.07527988
Generation: 299		Mean: 0.2227519		Best: 0.299022		Worst: 0		Standard Deviation: 0.05833091
Generation: 399		Mean: 0.2120501		Best: 0.2976705		Worst: 0		Standard Deviation: 0.07687146
Generation: 499		Mean: 0.2305597		Best: 0.3325951		Worst: 0		Standard Deviation: 0.08147706
Generation: 599		Mean: 0.219093		Best: 0.3175445		Worst: 0		Standard Deviation: 0.08603583
Generation: 699		Mean: 0.2566311		Best: 0.3419417		Worst: 0		Standard Deviation: 0.07389665
Generation: 799		Mean: 0.2256751		Best: 0.3417707		Worst: 0		Standard Deviation: 0.0771414
Generation: 899		Mean: 0.1909074		Best: 0.2692564		Worst: 0		Standard Deviation: 0.06452905
Generation: 999		Mean: 0.1836227		Best: 0.2449803		Worst: 0		Standard Deviation: 0.04660991
Generation: 1099		Mean: 0.2319553		Best: 0.3480715		Worst: 0		Standard Deviation: 0.07386325
Generation: 1199		Mean: 0.2178634		Best: 0.3286205		Worst: 0		Standard Deviation: 0.09215679
Generation: 1299		Mean: 0.2011483		Best: 0.2910955		Worst: 0		Standard Deviation: 0.07341257
Generation: 1399		Mean: 0.2565752		Best: 0.364071		Worst: 0		Standard Deviation: 0.08004536
Generation: 1499		Mean: 0.2238028		Best: 0.3050165		Worst: 0		Standard Deviation: 0.06771734
Generation: 1599		Mean: 0.2271565		Best: 0.3165006		Worst: 0		Standard Deviation: 0.06519137
Generation: 1699		Mean: 0.2359759		Best: 0.3353496		Worst: 0		Standard Deviation: 0.06418312
Generation: 1799		Mean: 0.2188765		Best: 0.3051307		Worst: 0		Standard Deviation: 0.07063642
Generation: 1899		Mean: 0.2243233		Best: 0.3335637		Worst: 0		Standard Deviation: 0.07504913
Generation: 1999		Mean: 0.2311499		Best: 0.3224594		Worst: 0		Standard Deviation: 0.06955008
Generation: 2099		Mean: 0.2048947		Best: 0.295258		Worst: 0		Standard Deviation: 0.06768247
Generation: 2199		Mean: 0.2038895		Best: 0.3171859		Worst: 0		Standard Deviation: 0.07218732
Generation: 2299		Mean: 0.2392097		Best: 0.3350075		Worst: 0		Standard Deviation: 0.0763566
Generation: 2399		Mean: 0.1887378		Best: 0.273265		Worst: 0		Standard Deviation: 0.07614691
Generation: 2499		Mean: 0.2349397		Best: 0.3095214		Worst: 0		Standard Deviation: 0.06078848
Generation: 2599		Mean: 0.2428524		Best: 0.3129596		Worst: 0		Standard Deviation: 0.04737421
Generation: 2699		Mean: 0.2237594		Best: 0.32021		Worst: 0		Standard Deviation: 0.06339735
Generation: 2799		Mean: 0.2520147		Best: 0.3531339		Worst: 0		Standard Deviation: 0.07798836
Generation: 2899		Mean: 0.2839261		Best: 0.378401		Worst: 0		Standard Deviation: 0.07434672
Generation: 2999		Mean: 0.2035598		Best: 0.2631787		Worst: 0		Standard Deviation: 0.0511523

Mean: 0.2237087		Best: 0.3154615		Standard Deviation: 0.07031652
