Generation: 99		Mean: 0.1915874		Best: 0.2927689		Worst: 0		Standard Deviation: 0.05921701
Generation: 199		Mean: 0.1694867		Best: 0.2607121		Worst: 0		Standard Deviation: 0.05377268
Generation: 299		Mean: 0.1865177		Best: 0.2556073		Worst: 0		Standard Deviation: 0.04226128
Generation: 399		Mean: 0.1757193		Best: 0.2685986		Worst: 0		Standard Deviation: 0.05915061
Generation: 499		Mean: 0.1680639		Best: 0.2405412		Worst: 0		Standard Deviation: 0.0420096
Generation: 599		Mean: 0.2092875		Best: 0.2913226		Worst: 0		Standard Deviation: 0.05168829
Generation: 699		Mean: 0.1938188		Best: 0.2874257		Worst: 0		Standard Deviation: 0.05198957
Generation: 799		Mean: 0.1618992		Best: 0.2618884		Worst: 0		Standard Deviation: 0.05461562
Generation: 899		Mean: 0.1455824		Best: 0.1997116		Worst: 0		Standard Deviation: 0.03711275
Generation: 999		Mean: 0.1556964		Best: 0.2598496		Worst: 0		Standard Deviation: 0.05777011
Generation: 1099		Mean: 0.1758925		Best: 0.25315		Worst: 0		Standard Deviation: 0.04973237
Generation: 1199		Mean: 0.1647054		Best: 0.2568882		Worst: 0		Standard Deviation: 0.05598876
Generation: 1299		Mean: 0.1638137		Best: 0.2525306		Worst: 0		Standard Deviation: 0.05613008
Generation: 1399		Mean: 0.1697869		Best: 0.2560594		Worst: 0		Standard Deviation: 0.0452637
Generation: 1499		Mean: 0.2094107		Best: 0.3059573		Worst: 0		Standard Deviation: 0.05136964
Generation: 1599		Mean: 0.2249946		Best: 0.3045898		Worst: 0		Standard Deviation: 0.04838504
Generation: 1699		Mean: 0.1467957		Best: 0.2294244		Worst: 0		Standard Deviation: 0.04620811
Generation: 1799		Mean: 0.1481596		Best: 0.2380053		Worst: 0		Standard Deviation: 0.04563787
Generation: 1899		Mean: 0.1813212		Best: 0.2798668		Worst: 0		Standard Deviation: 0.05339535
Generation: 1999		Mean: 0.2042945		Best: 0.3097814		Worst: 0		Standard Deviation: 0.04972327
Generation: 2099		Mean: 0.1669024		Best: 0.2554611		Worst: 0		Standard Deviation: 0.04000723
Generation: 2199		Mean: 0.1588292		Best: 0.2432126		Worst: 0		Standard Deviation: 0.04530396
Generation: 2299		Mean: 0.1316195		Best: 0.2003687		Worst: 0		Standard Deviation: 0.04295049
Generation: 2399		Mean: 0.1792774		Best: 0.2492927		Worst: 0		Standard Deviation: 0.04504381
Generation: 2499		Mean: 0.1412999		Best: 0.2228496		Worst: 0		Standard Deviation: 0.05203759
Generation: 2599		Mean: 0.159599		Best: 0.2492548		Worst: 0		Standard Deviation: 0.05858289
Generation: 2699		Mean: 0.1589296		Best: 0.2457767		Worst: 0		Standard Deviation: 0.05130948
Generation: 2799		Mean: 0.1574274		Best: 0.2286333		Worst: 0		Standard Deviation: 0.03617816
Generation: 2899		Mean: 0.1679863		Best: 0.287406		Worst: 0		Standard Deviation: 0.07539553
Generation: 2999		Mean: 0.1459346		Best: 0.2341179		Worst: 0		Standard Deviation: 0.05040427

Mean: 0.170488		Best: 0.2573684		Standard Deviation: 0.05028784
