Generation: 99		Mean: 0.1478427		Best: 0.2380687		Worst: 0.07772323		Standard Deviation: 0.02638168
Generation: 199		Mean: 0.1460917		Best: 0.227292		Worst: 0.08810028		Standard Deviation: 0.02286234
Generation: 299		Mean: 0.1547137		Best: 0.2438067		Worst: 0.07503598		Standard Deviation: 0.02605393
Generation: 399		Mean: 0.1593178		Best: 0.2617457		Worst: 0.09791049		Standard Deviation: 0.02834713
Generation: 499		Mean: 0.1477004		Best: 0.2320796		Worst: 0.09765328		Standard Deviation: 0.02167713
Generation: 599		Mean: 0.1465933		Best: 0.2234147		Worst: 0.1002954		Standard Deviation: 0.02104761
Generation: 699		Mean: 0.1432959		Best: 0.2179535		Worst: 0.07884742		Standard Deviation: 0.02356593
Generation: 799		Mean: 0.1463934		Best: 0.2243172		Worst: 0.08338591		Standard Deviation: 0.02281003
Generation: 899		Mean: 0.1458159		Best: 0.2358765		Worst: 0.09136586		Standard Deviation: 0.02606983
Generation: 999		Mean: 0.1523484		Best: 0.2619966		Worst: 0.07997293		Standard Deviation: 0.02846483
Generation: 1099		Mean: 0.1525718		Best: 0.2357866		Worst: 0.0981052		Standard Deviation: 0.02227651
Generation: 1199		Mean: 0.1401585		Best: 0.2167957		Worst: 0.09465243		Standard Deviation: 0.01834632
Generation: 1299		Mean: 0.1442952		Best: 0.2290894		Worst: 0.08473853		Standard Deviation: 0.02283909
Generation: 1399		Mean: 0.1502531		Best: 0.2229129		Worst: 0.06555067		Standard Deviation: 0.02103663
Generation: 1499		Mean: 0.1512398		Best: 0.2562818		Worst: 0.08975958		Standard Deviation: 0.02843814
Generation: 1599		Mean: 0.1243485		Best: 0.1911092		Worst: 0.08601958		Standard Deviation: 0.0173955
Generation: 1699		Mean: 0.1462537		Best: 0.2151387		Worst: 0.09466651		Standard Deviation: 0.02096509
Generation: 1799		Mean: 0.1475394		Best: 0.2351589		Worst: 0.09355959		Standard Deviation: 0.02388635
Generation: 1899		Mean: 0.160672		Best: 0.254841		Worst: 0.09737393		Standard Deviation: 0.02478345
Generation: 1999		Mean: 0.1452442		Best: 0.2178488		Worst: 0.08685163		Standard Deviation: 0.02378728
Generation: 2099		Mean: 0.1521637		Best: 0.2470148		Worst: 0.09713489		Standard Deviation: 0.02274661
Generation: 2199		Mean: 0.144216		Best: 0.235422		Worst: 0.08583336		Standard Deviation: 0.02424644
Generation: 2299		Mean: 0.1626999		Best: 0.2644221		Worst: 0.08793745		Standard Deviation: 0.02980637
Generation: 2399		Mean: 0.1563573		Best: 0.2518062		Worst: 0.08814162		Standard Deviation: 0.024753
Generation: 2499		Mean: 0.1461929		Best: 0.2328594		Worst: 0.09876288		Standard Deviation: 0.02386061
Generation: 2599		Mean: 0.1625632		Best: 0.2824382		Worst: 0.09162291		Standard Deviation: 0.02814303
Generation: 2699		Mean: 0.1422166		Best: 0.2409604		Worst: 0.09509684		Standard Deviation: 0.02202377
Generation: 2799		Mean: 0.1576577		Best: 0.2550388		Worst: 0.08897465		Standard Deviation: 0.02837958
Generation: 2899		Mean: 0.147453		Best: 0.2417309		Worst: 0.09314714		Standard Deviation: 0.02371427
Generation: 2999		Mean: 0.1522751		Best: 0.2458575		Worst: 0.08453742		Standard Deviation: 0.02419996

Mean: 0.1492162		Best: 0.2379688		Standard Deviation: 0.02409695
