Generation: 99		Mean: 0.4348771		Best: 0.5295434		Worst: 0		Standard Deviation: 0.09472574
Generation: 199		Mean: 0.4237324		Best: 0.5023682		Worst: 0		Standard Deviation: 0.09322535
Generation: 299		Mean: 0.4445681		Best: 0.5308654		Worst: 0		Standard Deviation: 0.1113609
Generation: 399		Mean: 0.4290118		Best: 0.5197943		Worst: 0		Standard Deviation: 0.1000165
Generation: 499		Mean: 0.4262262		Best: 0.5325381		Worst: 0		Standard Deviation: 0.1217547
Generation: 599		Mean: 0.4254092		Best: 0.5117361		Worst: 0		Standard Deviation: 0.09462006
Generation: 699		Mean: 0.4442078		Best: 0.5242203		Worst: 0		Standard Deviation: 0.09254828
Generation: 799		Mean: 0.435061		Best: 0.5269716		Worst: 0		Standard Deviation: 0.09181657
Generation: 899		Mean: 0.4240916		Best: 0.4878538		Worst: 0		Standard Deviation: 0.07952074
Generation: 999		Mean: 0.4503716		Best: 0.5295869		Worst: 0		Standard Deviation: 0.09446678
Generation: 1099		Mean: 0.4390953		Best: 0.5241964		Worst: 0		Standard Deviation: 0.09172868
Generation: 1199		Mean: 0.434765		Best: 0.5392041		Worst: 0		Standard Deviation: 0.1181189
Generation: 1299		Mean: 0.4476117		Best: 0.5315068		Worst: 0		Standard Deviation: 0.09733548
Generation: 1399		Mean: 0.4618685		Best: 0.5273932		Worst: 0		Standard Deviation: 0.07989754
Generation: 1499		Mean: 0.4576151		Best: 0.5385484		Worst: 0		Standard Deviation: 0.08958935
Generation: 1599		Mean: 0.4373238		Best: 0.5240845		Worst: 0		Standard Deviation: 0.09136733
Generation: 1699		Mean: 0.4212861		Best: 0.5073742		Worst: 0		Standard Deviation: 0.09686794
Generation: 1799		Mean: 0.4497339		Best: 0.5262054		Worst: 0		Standard Deviation: 0.09282447
Generation: 1899		Mean: 0.4113894		Best: 0.4871452		Worst: 0		Standard Deviation: 0.09434121
Generation: 1999		Mean: 0.4221022		Best: 0.531845		Worst: 0		Standard Deviation: 0.107527
Generation: 2099		Mean: 0.4358807		Best: 0.4945318		Worst: 0		Standard Deviation: 0.0668781
Generation: 2199		Mean: 0.392767		Best: 0.517261		Worst: 0		Standard Deviation: 0.1367151
Generation: 2299		Mean: 0.4226738		Best: 0.5002776		Worst: 0		Standard Deviation: 0.09092088
Generation: 2399		Mean: 0.4345402		Best: 0.5256586		Worst: 0		Standard Deviation: 0.1023895
Generation: 2499		Mean: 0.4482595		Best: 0.5342432		Worst: 0		Standard Deviation: 0.1095116
Generation: 2599		Mean: 0.4459797		Best: 0.5203832		Worst: 0		Standard Deviation: 0.08566318
Generation: 2699		Mean: 0.4491046		Best: 0.5283699		Worst: 0		Standard Deviation: 0.08191973
Generation: 2799		Mean: 0.4315669		Best: 0.4961638		Worst: 0		Standard Deviation: 0.07946728
Generation: 2899		Mean: 0.4411412		Best: 0.5138964		Worst: 0		Standard Deviation: 0.08634748
Generation: 2999		Mean: 0.4406024		Best: 0.5220132		Worst: 0		Standard Deviation: 0.09203829

Mean: 0.4354288		Best: 0.5195259		Standard Deviation: 0.09551682
