Generation: 99		Mean: 0.1169263		Best: 0.2365935		Worst: 0.0677136		Standard Deviation: 0.0180479
Generation: 199		Mean: 0.1238587		Best: 0.2410171		Worst: 0.06807315		Standard Deviation: 0.01993575
Generation: 299		Mean: 0.1191152		Best: 0.2658874		Worst: 0.07008826		Standard Deviation: 0.02048528
Generation: 399		Mean: 0.1208659		Best: 0.2514901		Worst: 0.05856559		Standard Deviation: 0.01994062
Generation: 499		Mean: 0.1199581		Best: 0.2414547		Worst: 0.06299143		Standard Deviation: 0.01994023
Generation: 599		Mean: 0.1215103		Best: 0.2358353		Worst: 0.06623349		Standard Deviation: 0.01994472
Generation: 699		Mean: 0.1188377		Best: 0.2638656		Worst: 0.07054859		Standard Deviation: 0.01901218
Generation: 799		Mean: 0.1184417		Best: 0.2470253		Worst: 0.05965066		Standard Deviation: 0.02059908
Generation: 899		Mean: 0.122932		Best: 0.2548243		Worst: 0.0719949		Standard Deviation: 0.01930127
Generation: 999		Mean: 0.1238711		Best: 0.2508687		Worst: 0.0697725		Standard Deviation: 0.02021994
Generation: 1099		Mean: 0.1203448		Best: 0.2422446		Worst: 0.07421089		Standard Deviation: 0.01927627
Generation: 1199		Mean: 0.1228421		Best: 0.2536684		Worst: 0.06482852		Standard Deviation: 0.02068794
Generation: 1299		Mean: 0.1222338		Best: 0.2318028		Worst: 0.07015578		Standard Deviation: 0.01907557
Generation: 1399		Mean: 0.1182471		Best: 0.247339		Worst: 0.06378647		Standard Deviation: 0.01964081
Generation: 1499		Mean: 0.1208198		Best: 0.2381559		Worst: 0.06815239		Standard Deviation: 0.01943951
Generation: 1599		Mean: 0.1253324		Best: 0.2711946		Worst: 0.06899343		Standard Deviation: 0.02129923
Generation: 1699		Mean: 0.1201176		Best: 0.2540837		Worst: 0.07145866		Standard Deviation: 0.0189364
Generation: 1799		Mean: 0.1185366		Best: 0.2442753		Worst: 0.06491233		Standard Deviation: 0.01944517
Generation: 1899		Mean: 0.1203794		Best: 0.2540604		Worst: 0.06413934		Standard Deviation: 0.02076925
Generation: 1999		Mean: 0.1214425		Best: 0.2414315		Worst: 0.07296127		Standard Deviation: 0.01832127
Generation: 2099		Mean: 0.1248641		Best: 0.2742426		Worst: 0.06360113		Standard Deviation: 0.01945815
Generation: 2199		Mean: 0.11858		Best: 0.2242543		Worst: 0.07259984		Standard Deviation: 0.01776723
Generation: 2299		Mean: 0.1186938		Best: 0.2393382		Worst: 0.06362329		Standard Deviation: 0.01938575
Generation: 2399		Mean: 0.1162985		Best: 0.2518556		Worst: 0.06149158		Standard Deviation: 0.01910464
Generation: 2499		Mean: 0.1232825		Best: 0.242385		Worst: 0.0681411		Standard Deviation: 0.01879112
Generation: 2599		Mean: 0.1183672		Best: 0.258424		Worst: 0.06331025		Standard Deviation: 0.01994497
Generation: 2699		Mean: 0.1216785		Best: 0.2636687		Worst: 0.05984438		Standard Deviation: 0.02050658
Generation: 2799		Mean: 0.1193822		Best: 0.234968		Worst: 0.06645676		Standard Deviation: 0.01839711
Generation: 2899		Mean: 0.1150209		Best: 0.2427551		Worst: 0.06811524		Standard Deviation: 0.01788544
Generation: 2999		Mean: 0.1234084		Best: 0.2722392		Worst: 0.06962635		Standard Deviation: 0.02125055

Mean: 0.1205397		Best: 0.2490416		Standard Deviation: 0.01956033
