Generation: 99		Mean: 0.2749818		Best: 0.4455729		Worst: 0.1517047		Standard Deviation: 0.05280745
Generation: 199		Mean: 0.2811209		Best: 0.4679208		Worst: 0.1634407		Standard Deviation: 0.05433331
Generation: 299		Mean: 0.2921158		Best: 0.4938192		Worst: 0.1735842		Standard Deviation: 0.05485226
Generation: 399		Mean: 0.2696297		Best: 0.4764947		Worst: 0.1486338		Standard Deviation: 0.04979526
Generation: 499		Mean: 0.2983106		Best: 0.4928521		Worst: 0.1389212		Standard Deviation: 0.05849368
Generation: 599		Mean: 0.2728533		Best: 0.4747765		Worst: 0.1716844		Standard Deviation: 0.04973437
Generation: 699		Mean: 0.2977982		Best: 0.4695431		Worst: 0.1419226		Standard Deviation: 0.05731499
Generation: 799		Mean: 0.2763644		Best: 0.4627489		Worst: 0.146034		Standard Deviation: 0.05491473
Generation: 899		Mean: 0.2726129		Best: 0.4507139		Worst: 0.1185009		Standard Deviation: 0.04970496
Generation: 999		Mean: 0.2886119		Best: 0.4708313		Worst: 0.1393677		Standard Deviation: 0.0559216
Generation: 1099		Mean: 0.2475603		Best: 0.4323093		Worst: 0.1343514		Standard Deviation: 0.05455761
Generation: 1199		Mean: 0.2580809		Best: 0.4530224		Worst: 0.1430615		Standard Deviation: 0.05269803
Generation: 1299		Mean: 0.2776421		Best: 0.4715772		Worst: 0.1627753		Standard Deviation: 0.05573952
Generation: 1399		Mean: 0.268017		Best: 0.4899826		Worst: 0.1661889		Standard Deviation: 0.04768217
Generation: 1499		Mean: 0.2876045		Best: 0.4700338		Worst: 0.1688771		Standard Deviation: 0.05621727
Generation: 1599		Mean: 0.2715645		Best: 0.4794775		Worst: 0.1409192		Standard Deviation: 0.04895854
Generation: 1699		Mean: 0.278009		Best: 0.4693564		Worst: 0.162549		Standard Deviation: 0.05667025
Generation: 1799		Mean: 0.3039904		Best: 0.5059626		Worst: 0.1527268		Standard Deviation: 0.06237157
Generation: 1899		Mean: 0.2783671		Best: 0.4576505		Worst: 0.1615888		Standard Deviation: 0.056653
Generation: 1999		Mean: 0.2669416		Best: 0.486412		Worst: 0.1203		Standard Deviation: 0.05507083
Generation: 2099		Mean: 0.2944199		Best: 0.4842453		Worst: 0.1826439		Standard Deviation: 0.05273778
Generation: 2199		Mean: 0.2732556		Best: 0.4620907		Worst: 0.1544587		Standard Deviation: 0.04945091
Generation: 2299		Mean: 0.2999188		Best: 0.4610896		Worst: 0.1554036		Standard Deviation: 0.05332969
Generation: 2399		Mean: 0.2906711		Best: 0.4507725		Worst: 0.1720956		Standard Deviation: 0.0635243
Generation: 2499		Mean: 0.2742283		Best: 0.4624915		Worst: 0.1290963		Standard Deviation: 0.05123743
Generation: 2599		Mean: 0.3075587		Best: 0.4739827		Worst: 0.1397931		Standard Deviation: 0.05829012
Generation: 2699		Mean: 0.2819393		Best: 0.4581622		Worst: 0.139668		Standard Deviation: 0.05184957
Generation: 2799		Mean: 0.2639388		Best: 0.4312519		Worst: 0.1654923		Standard Deviation: 0.0398068
Generation: 2899		Mean: 0.2602249		Best: 0.4363333		Worst: 0.1409079		Standard Deviation: 0.04904066
Generation: 2999		Mean: 0.260219		Best: 0.4662994		Worst: 0.1453342		Standard Deviation: 0.04582768

Mean: 0.2789517		Best: 0.4669258		Standard Deviation: 0.05331955
