Generation: 99		Mean: 0.105178		Best: 0.3575134		Worst: 0		Standard Deviation: 0.07169232
Generation: 199		Mean: 0.1167635		Best: 0.3680281		Worst: 0		Standard Deviation: 0.0706748
Generation: 299		Mean: 0.1101415		Best: 0.3611195		Worst: 0		Standard Deviation: 0.07084181
Generation: 399		Mean: 0.1071233		Best: 0.372941		Worst: 0		Standard Deviation: 0.07270013
Generation: 499		Mean: 0.1178547		Best: 0.3797973		Worst: 0		Standard Deviation: 0.06962783
Generation: 599		Mean: 0.1143955		Best: 0.3487844		Worst: 0		Standard Deviation: 0.06971668
Generation: 699		Mean: 0.1143782		Best: 0.3625661		Worst: 0		Standard Deviation: 0.07154444
Generation: 799		Mean: 0.1161969		Best: 0.3573994		Worst: 0		Standard Deviation: 0.06930639
Generation: 899		Mean: 0.1183566		Best: 0.3597561		Worst: 0		Standard Deviation: 0.07008398
Generation: 999		Mean: 0.1048329		Best: 0.3682325		Worst: 0		Standard Deviation: 0.07310403
Generation: 1099		Mean: 0.1176805		Best: 0.3670705		Worst: 0		Standard Deviation: 0.07155637
Generation: 1199		Mean: 0.1120736		Best: 0.3664998		Worst: 0		Standard Deviation: 0.07137221
Generation: 1299		Mean: 0.1060308		Best: 0.3546441		Worst: 0		Standard Deviation: 0.06842408
Generation: 1399		Mean: 0.1181809		Best: 0.3661015		Worst: 0		Standard Deviation: 0.07109261
Generation: 1499		Mean: 0.1207451		Best: 0.3547223		Worst: 0		Standard Deviation: 0.06685076
Generation: 1599		Mean: 0.1078786		Best: 0.3647309		Worst: 0		Standard Deviation: 0.07208812
Generation: 1699		Mean: 0.1169236		Best: 0.3631996		Worst: 0		Standard Deviation: 0.06950016
Generation: 1799		Mean: 0.1061115		Best: 0.367105		Worst: 0		Standard Deviation: 0.07260098
Generation: 1899		Mean: 0.1132319		Best: 0.3672982		Worst: 0		Standard Deviation: 0.07043368
Generation: 1999		Mean: 0.1166243		Best: 0.3514615		Worst: 0		Standard Deviation: 0.07086106
Generation: 2099		Mean: 0.1140973		Best: 0.3485514		Worst: 0		Standard Deviation: 0.06916474
Generation: 2199		Mean: 0.1098485		Best: 0.3582357		Worst: 0		Standard Deviation: 0.07350252
Generation: 2299		Mean: 0.1110418		Best: 0.3471609		Worst: 0		Standard Deviation: 0.06935333
Generation: 2399		Mean: 0.1118137		Best: 0.3725185		Worst: 0		Standard Deviation: 0.06844965
Generation: 2499		Mean: 0.1094924		Best: 0.3652672		Worst: 0		Standard Deviation: 0.06904012
Generation: 2599		Mean: 0.1055499		Best: 0.3452925		Worst: 0		Standard Deviation: 0.07066637
Generation: 2699		Mean: 0.1073446		Best: 0.3831935		Worst: 0		Standard Deviation: 0.07374926
Generation: 2799		Mean: 0.1041882		Best: 0.3384342		Worst: 0		Standard Deviation: 0.07287235
Generation: 2899		Mean: 0.1134556		Best: 0.3483821		Worst: 0		Standard Deviation: 0.06961339
Generation: 2999		Mean: 0.1069155		Best: 0.3658585		Worst: 0		Standard Deviation: 0.07157099

Mean: 0.111815		Best: 0.3610621		Standard Deviation: 0.07073518
