Generation: 99		Mean: 0.2118546		Best: 0.3230709		Worst: 0		Standard Deviation: 0.08638202
Generation: 199		Mean: 0.2712687		Best: 0.36119		Worst: 0		Standard Deviation: 0.07327965
Generation: 299		Mean: 0.2636404		Best: 0.3379216		Worst: 0		Standard Deviation: 0.06445865
Generation: 399		Mean: 0.1950299		Best: 0.2884618		Worst: 0		Standard Deviation: 0.07087499
Generation: 499		Mean: 0.2778854		Best: 0.4038889		Worst: 0		Standard Deviation: 0.08587912
Generation: 599		Mean: 0.2585449		Best: 0.3732966		Worst: 0		Standard Deviation: 0.08999937
Generation: 699		Mean: 0.2249704		Best: 0.3190673		Worst: 0		Standard Deviation: 0.06966301
Generation: 799		Mean: 0.2189574		Best: 0.3044359		Worst: 0		Standard Deviation: 0.07018121
Generation: 899		Mean: 0.2154916		Best: 0.3146128		Worst: 0		Standard Deviation: 0.06126026
Generation: 999		Mean: 0.2398991		Best: 0.3627842		Worst: 0		Standard Deviation: 0.08064941
Generation: 1099		Mean: 0.2496352		Best: 0.3395854		Worst: 0		Standard Deviation: 0.06390846
Generation: 1199		Mean: 0.2606084		Best: 0.3527364		Worst: 0		Standard Deviation: 0.06476886
Generation: 1299		Mean: 0.2140264		Best: 0.3271364		Worst: 0		Standard Deviation: 0.07416642
Generation: 1399		Mean: 0.2383835		Best: 0.3442171		Worst: 0		Standard Deviation: 0.07749466
Generation: 1499		Mean: 0.1786258		Best: 0.2560779		Worst: 0		Standard Deviation: 0.07071068
Generation: 1599		Mean: 0.2176782		Best: 0.3075233		Worst: 0		Standard Deviation: 0.07722554
Generation: 1699		Mean: 0.2254364		Best: 0.3055476		Worst: 0		Standard Deviation: 0.06051407
Generation: 1799		Mean: 0.2409528		Best: 0.3534701		Worst: 0		Standard Deviation: 0.07041206
Generation: 1899		Mean: 0.2121683		Best: 0.3091359		Worst: 0		Standard Deviation: 0.07361369
Generation: 1999		Mean: 0.2783793		Best: 0.3866057		Worst: 0		Standard Deviation: 0.07232312
Generation: 2099		Mean: 0.2042039		Best: 0.303578		Worst: 0		Standard Deviation: 0.07796303
Generation: 2199		Mean: 0.2320165		Best: 0.3678865		Worst: 0		Standard Deviation: 0.1117
Generation: 2299		Mean: 0.2965319		Best: 0.4228045		Worst: 0		Standard Deviation: 0.07673163
Generation: 2399		Mean: 0.2596346		Best: 0.3737966		Worst: 0		Standard Deviation: 0.09868454
Generation: 2499		Mean: 0.2837689		Best: 0.3729497		Worst: 0		Standard Deviation: 0.06798018
Generation: 2599		Mean: 0.2228281		Best: 0.3718354		Worst: 0		Standard Deviation: 0.1144743
Generation: 2699		Mean: 0.2529327		Best: 0.3336613		Worst: 0		Standard Deviation: 0.06549667
Generation: 2799		Mean: 0.2332281		Best: 0.3296109		Worst: 0		Standard Deviation: 0.07113148
Generation: 2899		Mean: 0.1818634		Best: 0.2734607		Worst: 0		Standard Deviation: 0.07936096
Generation: 2999		Mean: 0.231852		Best: 0.3455276		Worst: 0		Standard Deviation: 0.0844722

Mean: 0.2364099		Best: 0.3388625		Standard Deviation: 0.07685867
