Generation: 99		Mean: 0.3917701		Best: 0.5089092		Worst: 0.1623683		Standard Deviation: 0.07738481
Generation: 199		Mean: 0.3621099		Best: 0.4992039		Worst: 0.198723		Standard Deviation: 0.07705578
Generation: 299		Mean: 0.3801161		Best: 0.527346		Worst: 0.1888487		Standard Deviation: 0.08758763
Generation: 399		Mean: 0.3803172		Best: 0.5177007		Worst: 0.1815162		Standard Deviation: 0.08024227
Generation: 499		Mean: 0.3752536		Best: 0.5050137		Worst: 0.1518999		Standard Deviation: 0.08648095
Generation: 599		Mean: 0.3438001		Best: 0.4816872		Worst: 0.1776879		Standard Deviation: 0.08460768
Generation: 699		Mean: 0.372886		Best: 0.5012752		Worst: 0.1799834		Standard Deviation: 0.09022252
Generation: 799		Mean: 0.3740273		Best: 0.5278298		Worst: 0.2013108		Standard Deviation: 0.08850312
Generation: 899		Mean: 0.3606695		Best: 0.4869833		Worst: 0.1682716		Standard Deviation: 0.07951555
Generation: 999		Mean: 0.3635081		Best: 0.4694143		Worst: 0.1797857		Standard Deviation: 0.07554484
Generation: 1099		Mean: 0.3931175		Best: 0.5206245		Worst: 0.1780388		Standard Deviation: 0.0805627
Generation: 1199		Mean: 0.3749206		Best: 0.5041347		Worst: 0.1513136		Standard Deviation: 0.08027107
Generation: 1299		Mean: 0.3964887		Best: 0.4952557		Worst: 0.2063806		Standard Deviation: 0.07104686
Generation: 1399		Mean: 0.3727447		Best: 0.5032765		Worst: 0.1560465		Standard Deviation: 0.09010747
Generation: 1499		Mean: 0.3711595		Best: 0.5202467		Worst: 0.1833081		Standard Deviation: 0.07663949
Generation: 1599		Mean: 0.4122986		Best: 0.5287716		Worst: 0.2250687		Standard Deviation: 0.09463352
Generation: 1699		Mean: 0.3937725		Best: 0.5355038		Worst: 0.1924775		Standard Deviation: 0.09152897
Generation: 1799		Mean: 0.3862561		Best: 0.5274055		Worst: 0.1875603		Standard Deviation: 0.08044308
Generation: 1899		Mean: 0.359524		Best: 0.4870195		Worst: 0.1448101		Standard Deviation: 0.08133905
Generation: 1999		Mean: 0.3981186		Best: 0.5354284		Worst: 0.1864599		Standard Deviation: 0.09323055
Generation: 2099		Mean: 0.389202		Best: 0.5315479		Worst: 0.1864225		Standard Deviation: 0.08089539
Generation: 2199		Mean: 0.3586077		Best: 0.4679642		Worst: 0.1599145		Standard Deviation: 0.07334731
Generation: 2299		Mean: 0.3757979		Best: 0.5268035		Worst: 0.1837938		Standard Deviation: 0.08600633
Generation: 2399		Mean: 0.3628997		Best: 0.484274		Worst: 0.2033416		Standard Deviation: 0.07593971
Generation: 2499		Mean: 0.3558697		Best: 0.4848596		Worst: 0.1487218		Standard Deviation: 0.07184208
Generation: 2599		Mean: 0.3830097		Best: 0.513425		Worst: 0.1815668		Standard Deviation: 0.08412823
Generation: 2699		Mean: 0.3870222		Best: 0.5099804		Worst: 0.1985009		Standard Deviation: 0.08831339
Generation: 2799		Mean: 0.3531698		Best: 0.4911004		Worst: 0.1646765		Standard Deviation: 0.08689553
Generation: 2899		Mean: 0.3910792		Best: 0.517156		Worst: 0.1730442		Standard Deviation: 0.0825053
Generation: 2999		Mean: 0.353432		Best: 0.4541428		Worst: 0.1715903		Standard Deviation: 0.06102164

Mean: 0.3757649		Best: 0.5054761		Standard Deviation: 0.08192809
