Generation: 99		Mean: 0.2640697		Best: 0.4300904		Worst: 0		Standard Deviation: 0.09123152
Generation: 199		Mean: 0.2836168		Best: 0.4104142		Worst: 0		Standard Deviation: 0.07833944
Generation: 299		Mean: 0.3052009		Best: 0.4338043		Worst: 0		Standard Deviation: 0.09236626
Generation: 399		Mean: 0.2517584		Best: 0.3999242		Worst: 0		Standard Deviation: 0.07902093
Generation: 499		Mean: 0.2159922		Best: 0.3687698		Worst: 0		Standard Deviation: 0.07728899
Generation: 599		Mean: 0.221459		Best: 0.3575976		Worst: 0		Standard Deviation: 0.0787266
Generation: 699		Mean: 0.2612709		Best: 0.4040674		Worst: 0		Standard Deviation: 0.08248424
Generation: 799		Mean: 0.2311431		Best: 0.3688444		Worst: 0		Standard Deviation: 0.07426057
Generation: 899		Mean: 0.242799		Best: 0.4154945		Worst: 0		Standard Deviation: 0.07957584
Generation: 999		Mean: 0.2420517		Best: 0.4043136		Worst: 0		Standard Deviation: 0.08753331
Generation: 1099		Mean: 0.253681		Best: 0.3889858		Worst: 0		Standard Deviation: 0.07390257
Generation: 1199		Mean: 0.2484891		Best: 0.4122442		Worst: 0		Standard Deviation: 0.07808569
Generation: 1299		Mean: 0.2866035		Best: 0.4319443		Worst: 0		Standard Deviation: 0.08747786
Generation: 1399		Mean: 0.2124773		Best: 0.3839116		Worst: 0		Standard Deviation: 0.07454044
Generation: 1499		Mean: 0.2561386		Best: 0.4209546		Worst: 0		Standard Deviation: 0.08487801
Generation: 1599		Mean: 0.2736078		Best: 0.40718		Worst: 0		Standard Deviation: 0.08752408
Generation: 1699		Mean: 0.2269455		Best: 0.3734765		Worst: 0		Standard Deviation: 0.0711213
Generation: 1799		Mean: 0.2629572		Best: 0.396072		Worst: 0		Standard Deviation: 0.07960358
Generation: 1899		Mean: 0.2723403		Best: 0.4276694		Worst: 0		Standard Deviation: 0.09467085
Generation: 1999		Mean: 0.2277925		Best: 0.3738992		Worst: 0		Standard Deviation: 0.06912489
Generation: 2099		Mean: 0.2266311		Best: 0.3845089		Worst: 0		Standard Deviation: 0.07683503
Generation: 2199		Mean: 0.2305315		Best: 0.3798692		Worst: 0		Standard Deviation: 0.07061378
Generation: 2299		Mean: 0.225882		Best: 0.4140217		Worst: 0		Standard Deviation: 0.0757232
Generation: 2399		Mean: 0.2491645		Best: 0.3843092		Worst: 0		Standard Deviation: 0.07571623
Generation: 2499		Mean: 0.2559926		Best: 0.4137665		Worst: 0		Standard Deviation: 0.08326079
Generation: 2599		Mean: 0.2665367		Best: 0.3981342		Worst: 0		Standard Deviation: 0.07709055
Generation: 2699		Mean: 0.2338546		Best: 0.3717528		Worst: 0		Standard Deviation: 0.07125174
Generation: 2799		Mean: 0.2490105		Best: 0.4036449		Worst: 0		Standard Deviation: 0.07685149
Generation: 2899		Mean: 0.2334037		Best: 0.3795639		Worst: 0		Standard Deviation: 0.07159471
Generation: 2999		Mean: 0.2476983		Best: 0.4128279		Worst: 0		Standard Deviation: 0.0836824

Mean: 0.2486367		Best: 0.3984019		Standard Deviation: 0.07947922
