Generation: 99		Mean: 0.5126506		Best: 0.5236898		Worst: 0		Standard Deviation: 0.019311
Generation: 199		Mean: 0.504462		Best: 0.5122419		Worst: 0		Standard Deviation: 0.01342608
Generation: 299		Mean: 0.511984		Best: 0.5206754		Worst: 0		Standard Deviation: 0.01504846
Generation: 399		Mean: 0.5117015		Best: 0.5257608		Worst: 0		Standard Deviation: 0.0244812
Generation: 499		Mean: 0.5032392		Best: 0.5096758		Worst: 0		Standard Deviation: 0.01143885
Generation: 599		Mean: 0.5227646		Best: 0.5347157		Worst: 0		Standard Deviation: 0.02103516
Generation: 699		Mean: 0.4992766		Best: 0.5092071		Worst: 0		Standard Deviation: 0.01772005
Generation: 799		Mean: 0.5048655		Best: 0.5154761		Worst: 0		Standard Deviation: 0.01841284
Generation: 899		Mean: 0.4974752		Best: 0.5068101		Worst: 0		Standard Deviation: 0.01625857
Generation: 999		Mean: 0.4780393		Best: 0.4881185		Worst: 0		Standard Deviation: 0.01602449
Generation: 1099		Mean: 0.5041158		Best: 0.5134144		Worst: 0		Standard Deviation: 0.01595991
Generation: 1199		Mean: 0.5132721		Best: 0.5259556		Worst: 0		Standard Deviation: 0.02106763
Generation: 1299		Mean: 0.4956721		Best: 0.5040465		Worst: 0		Standard Deviation: 0.01450311
Generation: 1399		Mean: 0.488089		Best: 0.4951395		Worst: 0		Standard Deviation: 0.01272797
Generation: 1499		Mean: 0.4770462		Best: 0.4818717		Worst: 0		Standard Deviation: 0.008194017
Generation: 1599		Mean: 0.4900398		Best: 0.4967876		Worst: 0		Standard Deviation: 0.01177932
Generation: 1699		Mean: 0.5378101		Best: 0.5487311		Worst: 0		Standard Deviation: 0.0198444
Generation: 1799		Mean: 0.5363607		Best: 0.5468799		Worst: 0		Standard Deviation: 0.01913816
Generation: 1899		Mean: 0.5279918		Best: 0.5391816		Worst: 0		Standard Deviation: 0.0198675
Generation: 1999		Mean: 0.4847449		Best: 0.4908377		Worst: 0		Standard Deviation: 0.009999581
Generation: 2099		Mean: 0.4977275		Best: 0.5073552		Worst: 0		Standard Deviation: 0.01708726
Generation: 2199		Mean: 0.5330099		Best: 0.5471469		Worst: 0		Standard Deviation: 0.02547342
Generation: 2299		Mean: 0.527778		Best: 0.5428423		Worst: 0		Standard Deviation: 0.02710013
Generation: 2399		Mean: 0.4886753		Best: 0.495385		Worst: 0		Standard Deviation: 0.01212744
Generation: 2499		Mean: 0.5369298		Best: 0.5510905		Worst: 0		Standard Deviation: 0.02580939
Generation: 2599		Mean: 0.5026964		Best: 0.5113977		Worst: 0		Standard Deviation: 0.01545143
Generation: 2699		Mean: 0.5117255		Best: 0.5230164		Worst: 0		Standard Deviation: 0.02018478
Generation: 2799		Mean: 0.5152177		Best: 0.5234286		Worst: 0		Standard Deviation: 0.01471012
Generation: 2899		Mean: 0.5048668		Best: 0.5131015		Worst: 0		Standard Deviation: 0.0143933
Generation: 2999		Mean: 0.499539		Best: 0.5080203		Worst: 0		Standard Deviation: 0.01495948

Mean: 0.5073255		Best: 0.5170667		Standard Deviation: 0.01711783
