Generation: 99		Mean: 0.05444501		Best: 0.1023093		Worst: 0.0382067		Standard Deviation: 0.006330382
Generation: 199		Mean: 0.05476424		Best: 0.11726		Worst: 0.03739093		Standard Deviation: 0.006007596
Generation: 299		Mean: 0.05518839		Best: 0.1187712		Worst: 0.03896033		Standard Deviation: 0.006490177
Generation: 399		Mean: 0.05556116		Best: 0.1109967		Worst: 0.03845584		Standard Deviation: 0.006439051
Generation: 499		Mean: 0.05463162		Best: 0.1249149		Worst: 0.03599581		Standard Deviation: 0.006606114
Generation: 599		Mean: 0.05483029		Best: 0.1143633		Worst: 0.03782762		Standard Deviation: 0.006430754
Generation: 699		Mean: 0.0545125		Best: 0.1383326		Worst: 0.03619389		Standard Deviation: 0.006278217
Generation: 799		Mean: 0.05550049		Best: 0.1089713		Worst: 0.03743787		Standard Deviation: 0.006201579
Generation: 899		Mean: 0.05519001		Best: 0.1159609		Worst: 0.03882592		Standard Deviation: 0.006015486
Generation: 999		Mean: 0.05486095		Best: 0.1125375		Worst: 0.03713166		Standard Deviation: 0.006207636
Generation: 1099		Mean: 0.05460564		Best: 0.1143058		Worst: 0.03438266		Standard Deviation: 0.005911875
Generation: 1199		Mean: 0.05518398		Best: 0.1081085		Worst: 0.03817442		Standard Deviation: 0.006192847
Generation: 1299		Mean: 0.05432165		Best: 0.1160103		Worst: 0.03513477		Standard Deviation: 0.005906791
Generation: 1399		Mean: 0.05482227		Best: 0.114277		Worst: 0.03789076		Standard Deviation: 0.00588439
Generation: 1499		Mean: 0.0557688		Best: 0.1349364		Worst: 0.03946218		Standard Deviation: 0.006344914
Generation: 1599		Mean: 0.05557535		Best: 0.1128858		Worst: 0.03674901		Standard Deviation: 0.006763812
Generation: 1699		Mean: 0.05536092		Best: 0.117326		Worst: 0.03791611		Standard Deviation: 0.006222351
Generation: 1799		Mean: 0.05469955		Best: 0.1394749		Worst: 0.03663056		Standard Deviation: 0.006294457
Generation: 1899		Mean: 0.05474987		Best: 0.1125733		Worst: 0.03666067		Standard Deviation: 0.005866851
Generation: 1999		Mean: 0.05507688		Best: 0.09973542		Worst: 0.03846347		Standard Deviation: 0.006269484
Generation: 2099		Mean: 0.05571391		Best: 0.1267476		Worst: 0.03769083		Standard Deviation: 0.006318671
Generation: 2199		Mean: 0.05523923		Best: 0.1152572		Worst: 0.03906913		Standard Deviation: 0.006048037
Generation: 2299		Mean: 0.05549718		Best: 0.1216155		Worst: 0.03771013		Standard Deviation: 0.006247724
Generation: 2399		Mean: 0.05450826		Best: 0.1170239		Worst: 0.03783561		Standard Deviation: 0.005872327
Generation: 2499		Mean: 0.05546636		Best: 0.1312298		Worst: 0.03761167		Standard Deviation: 0.006603789
Generation: 2599		Mean: 0.05518679		Best: 0.1142963		Worst: 0.03809982		Standard Deviation: 0.006334306
Generation: 2699		Mean: 0.05526628		Best: 0.1094927		Worst: 0.03928895		Standard Deviation: 0.006198257
Generation: 2799		Mean: 0.05564195		Best: 0.1116031		Worst: 0.03794903		Standard Deviation: 0.006337755
Generation: 2899		Mean: 0.05477301		Best: 0.1097948		Worst: 0.03809946		Standard Deviation: 0.006033531
Generation: 2999		Mean: 0.05470318		Best: 0.1069466		Worst: 0.03516984		Standard Deviation: 0.006082195

Mean: 0.05505485		Best: 0.116602		Standard Deviation: 0.006224712
