Generation: 99		Mean: 0.3841281		Best: 0.5397896		Worst: 0.2316642		Standard Deviation: 0.07141884
Generation: 199		Mean: 0.3403803		Best: 0.4860848		Worst: 0.1806392		Standard Deviation: 0.08620178
Generation: 299		Mean: 0.3614107		Best: 0.5004031		Worst: 0.1811465		Standard Deviation: 0.08604907
Generation: 399		Mean: 0.3757212		Best: 0.4908837		Worst: 0.1512172		Standard Deviation: 0.08178591
Generation: 499		Mean: 0.3824249		Best: 0.5241269		Worst: 0.1870804		Standard Deviation: 0.07735799
Generation: 599		Mean: 0.3794464		Best: 0.5097598		Worst: 0.1666963		Standard Deviation: 0.08084767
Generation: 699		Mean: 0.3722489		Best: 0.5121303		Worst: 0.1626932		Standard Deviation: 0.08297158
Generation: 799		Mean: 0.3828586		Best: 0.4943768		Worst: 0.1542895		Standard Deviation: 0.088742
Generation: 899		Mean: 0.3890469		Best: 0.5221626		Worst: 0.2157113		Standard Deviation: 0.06940184
Generation: 999		Mean: 0.3607551		Best: 0.4955928		Worst: 0.1574754		Standard Deviation: 0.08357093
Generation: 1099		Mean: 0.3772983		Best: 0.5064738		Worst: 0.1733704		Standard Deviation: 0.07881179
Generation: 1199		Mean: 0.3825964		Best: 0.5058305		Worst: 0.1855977		Standard Deviation: 0.08731559
Generation: 1299		Mean: 0.3931551		Best: 0.5348067		Worst: 0.2039107		Standard Deviation: 0.07324828
Generation: 1399		Mean: 0.3558919		Best: 0.4797436		Worst: 0.1581612		Standard Deviation: 0.09057651
Generation: 1499		Mean: 0.3877901		Best: 0.5276688		Worst: 0.1992302		Standard Deviation: 0.08922518
Generation: 1599		Mean: 0.3874609		Best: 0.53508		Worst: 0.1846853		Standard Deviation: 0.0836263
Generation: 1699		Mean: 0.3822595		Best: 0.5060478		Worst: 0.1959459		Standard Deviation: 0.0842671
Generation: 1799		Mean: 0.3820136		Best: 0.4964599		Worst: 0.204951		Standard Deviation: 0.07517286
Generation: 1899		Mean: 0.3878896		Best: 0.5298401		Worst: 0.157152		Standard Deviation: 0.08155634
Generation: 1999		Mean: 0.3657441		Best: 0.500406		Worst: 0.1851123		Standard Deviation: 0.08932632
Generation: 2099		Mean: 0.370685		Best: 0.5125041		Worst: 0.1929168		Standard Deviation: 0.07361643
Generation: 2199		Mean: 0.3912946		Best: 0.5014755		Worst: 0.1644915		Standard Deviation: 0.0893801
Generation: 2299		Mean: 0.4025511		Best: 0.5105713		Worst: 0.2221274		Standard Deviation: 0.075339
Generation: 2399		Mean: 0.3594805		Best: 0.4824402		Worst: 0.137272		Standard Deviation: 0.08570529
Generation: 2499		Mean: 0.3806546		Best: 0.4920439		Worst: 0.1905809		Standard Deviation: 0.08200572
Generation: 2599		Mean: 0.3988845		Best: 0.5088841		Worst: 0.2069293		Standard Deviation: 0.07998113
Generation: 2699		Mean: 0.391759		Best: 0.5310241		Worst: 0.2060105		Standard Deviation: 0.07707654
Generation: 2799		Mean: 0.3853308		Best: 0.5215116		Worst: 0.1362265		Standard Deviation: 0.09181673
Generation: 2899		Mean: 0.3761141		Best: 0.4960825		Worst: 0.2102262		Standard Deviation: 0.0761569
Generation: 2999		Mean: 0.3615712		Best: 0.4939678		Worst: 0.1665161		Standard Deviation: 0.08881419

Mean: 0.3782949		Best: 0.5082725		Standard Deviation: 0.08204553
