Generation: 99		Mean: 0.09414193		Best: 0.1776935		Worst: 0.05413344		Standard Deviation: 0.01254762
Generation: 199		Mean: 0.09682284		Best: 0.1959028		Worst: 0.05538372		Standard Deviation: 0.01345698
Generation: 299		Mean: 0.09664639		Best: 0.194765		Worst: 0.05868095		Standard Deviation: 0.01431392
Generation: 399		Mean: 0.09370305		Best: 0.1824018		Worst: 0.04995622		Standard Deviation: 0.01287301
Generation: 499		Mean: 0.09628315		Best: 0.1938352		Worst: 0.05892344		Standard Deviation: 0.0137356
Generation: 599		Mean: 0.0978443		Best: 0.2288528		Worst: 0.06021303		Standard Deviation: 0.01482987
Generation: 699		Mean: 0.09518682		Best: 0.1936071		Worst: 0.05829971		Standard Deviation: 0.01383433
Generation: 799		Mean: 0.09578253		Best: 0.1889189		Worst: 0.05877822		Standard Deviation: 0.01377182
Generation: 899		Mean: 0.0980145		Best: 0.1989748		Worst: 0.05747661		Standard Deviation: 0.01411032
Generation: 999		Mean: 0.0999225		Best: 0.2095158		Worst: 0.05930498		Standard Deviation: 0.01468607
Generation: 1099		Mean: 0.09593765		Best: 0.1919352		Worst: 0.05945877		Standard Deviation: 0.01429769
Generation: 1199		Mean: 0.09668338		Best: 0.1960981		Worst: 0.05188913		Standard Deviation: 0.01455234
Generation: 1299		Mean: 0.09627379		Best: 0.1839962		Worst: 0.05618728		Standard Deviation: 0.0138474
Generation: 1399		Mean: 0.09979039		Best: 0.1990008		Worst: 0.0558163		Standard Deviation: 0.01503052
Generation: 1499		Mean: 0.09520503		Best: 0.1795687		Worst: 0.05989891		Standard Deviation: 0.01312955
Generation: 1599		Mean: 0.0952988		Best: 0.1921379		Worst: 0.05708964		Standard Deviation: 0.01361613
Generation: 1699		Mean: 0.09303846		Best: 0.1885151		Worst: 0.05594163		Standard Deviation: 0.01295309
Generation: 1799		Mean: 0.09592344		Best: 0.1809583		Worst: 0.05603473		Standard Deviation: 0.01326193
Generation: 1899		Mean: 0.09837122		Best: 0.1978568		Worst: 0.06257852		Standard Deviation: 0.01384381
Generation: 1999		Mean: 0.09733324		Best: 0.1803531		Worst: 0.06037853		Standard Deviation: 0.01354392
Generation: 2099		Mean: 0.09366085		Best: 0.1745659		Worst: 0.05911905		Standard Deviation: 0.01261462
Generation: 2199		Mean: 0.09796047		Best: 0.2009339		Worst: 0.0614831		Standard Deviation: 0.01476215
Generation: 2299		Mean: 0.09363601		Best: 0.1869632		Worst: 0.05371775		Standard Deviation: 0.01365357
Generation: 2399		Mean: 0.1005942		Best: 0.2095919		Worst: 0.05893136		Standard Deviation: 0.01512668
Generation: 2499		Mean: 0.09650324		Best: 0.1895062		Worst: 0.05898722		Standard Deviation: 0.0137359
Generation: 2599		Mean: 0.09685418		Best: 0.1896743		Worst: 0.05877452		Standard Deviation: 0.01339429
Generation: 2699		Mean: 0.09741605		Best: 0.1984754		Worst: 0.0607272		Standard Deviation: 0.01419651
Generation: 2799		Mean: 0.09621578		Best: 0.187362		Worst: 0.05505096		Standard Deviation: 0.01305855
Generation: 2899		Mean: 0.1020234		Best: 0.1984563		Worst: 0.05735493		Standard Deviation: 0.01540902
Generation: 2999		Mean: 0.0944118		Best: 0.1832534		Worst: 0.05965583		Standard Deviation: 0.0129865

Mean: 0.09658265		Best: 0.1924557		Standard Deviation: 0.01383912
