Generation: 99		Mean: 0.2431035		Best: 0.460286		Worst: 0		Standard Deviation: 0.1177036
Generation: 199		Mean: 0.257067		Best: 0.4576987		Worst: 0		Standard Deviation: 0.1227119
Generation: 299		Mean: 0.2342549		Best: 0.4741345		Worst: 0		Standard Deviation: 0.1183907
Generation: 399		Mean: 0.2461423		Best: 0.4634114		Worst: 0		Standard Deviation: 0.1179581
Generation: 499		Mean: 0.2286074		Best: 0.4787091		Worst: 0		Standard Deviation: 0.1209431
Generation: 599		Mean: 0.2618842		Best: 0.4557473		Worst: 0		Standard Deviation: 0.1233836
Generation: 699		Mean: 0.2541427		Best: 0.459721		Worst: 0		Standard Deviation: 0.1234667
Generation: 799		Mean: 0.1998273		Best: 0.506023		Worst: 0		Standard Deviation: 0.1152235
Generation: 899		Mean: 0.2437082		Best: 0.4614634		Worst: 0		Standard Deviation: 0.117862
Generation: 999		Mean: 0.2321241		Best: 0.4695256		Worst: 0		Standard Deviation: 0.1173796
Generation: 1099		Mean: 0.1973404		Best: 0.5090097		Worst: 0		Standard Deviation: 0.1226427
Generation: 1199		Mean: 0.2599148		Best: 0.4564117		Worst: 0		Standard Deviation: 0.1216073
Generation: 1299		Mean: 0.2268256		Best: 0.4849111		Worst: 0		Standard Deviation: 0.1238477
Generation: 1399		Mean: 0.2457824		Best: 0.4602719		Worst: 0		Standard Deviation: 0.1224895
Generation: 1499		Mean: 0.2265054		Best: 0.4797027		Worst: 0		Standard Deviation: 0.1254731
Generation: 1599		Mean: 0.2553421		Best: 0.4512621		Worst: 0		Standard Deviation: 0.1248531
Generation: 1699		Mean: 0.2440497		Best: 0.4633486		Worst: 0		Standard Deviation: 0.1210161
Generation: 1799		Mean: 0.2574019		Best: 0.4560021		Worst: 0		Standard Deviation: 0.124272
Generation: 1899		Mean: 0.2479391		Best: 0.4608439		Worst: 0		Standard Deviation: 0.1230768
Generation: 1999		Mean: 0.2394137		Best: 0.4654195		Worst: 0		Standard Deviation: 0.126733
Generation: 2099		Mean: 0.2519813		Best: 0.4582417		Worst: 0		Standard Deviation: 0.1183865
Generation: 2199		Mean: 0.248302		Best: 0.4586765		Worst: 0		Standard Deviation: 0.1238265
Generation: 2299		Mean: 0.2498856		Best: 0.4612622		Worst: 0		Standard Deviation: 0.1231313
Generation: 2399		Mean: 0.2528241		Best: 0.458653		Worst: 0		Standard Deviation: 0.1184816
Generation: 2499		Mean: 0.2486023		Best: 0.4587778		Worst: 0		Standard Deviation: 0.1232107
Generation: 2599		Mean: 0.2149302		Best: 0.4990901		Worst: 0		Standard Deviation: 0.1133237
Generation: 2699		Mean: 0.2544518		Best: 0.4572209		Worst: 0		Standard Deviation: 0.1249706
Generation: 2799		Mean: 0.2545848		Best: 0.461385		Worst: 0		Standard Deviation: 0.1182919
Generation: 2899		Mean: 0.2450302		Best: 0.4591388		Worst: 0		Standard Deviation: 0.123146
Generation: 2999		Mean: 0.2529524		Best: 0.4598748		Worst: 0		Standard Deviation: 0.1205542

Mean: 0.2424974		Best: 0.4668742		Standard Deviation: 0.1212786
