Generation: 99		Mean: 0.06103697		Best: 0.1158428		Worst: 0.04204646		Standard Deviation: 0.006736495
Generation: 199		Mean: 0.0604646		Best: 0.1073889		Worst: 0.03958268		Standard Deviation: 0.006418838
Generation: 299		Mean: 0.06105102		Best: 0.1124293		Worst: 0.04074408		Standard Deviation: 0.006822143
Generation: 399		Mean: 0.06032218		Best: 0.1089013		Worst: 0.03783611		Standard Deviation: 0.006646709
Generation: 499		Mean: 0.06122383		Best: 0.1159863		Worst: 0.04120176		Standard Deviation: 0.006835974
Generation: 599		Mean: 0.06107899		Best: 0.1065817		Worst: 0.04220295		Standard Deviation: 0.00680013
Generation: 699		Mean: 0.060487		Best: 0.1077944		Worst: 0.04219122		Standard Deviation: 0.006521581
Generation: 799		Mean: 0.06079738		Best: 0.1100354		Worst: 0.0419721		Standard Deviation: 0.006706818
Generation: 899		Mean: 0.0613879		Best: 0.1115239		Worst: 0.04185257		Standard Deviation: 0.006744576
Generation: 999		Mean: 0.06122566		Best: 0.109213		Worst: 0.04115043		Standard Deviation: 0.006466266
Generation: 1099		Mean: 0.06186452		Best: 0.104051		Worst: 0.04211962		Standard Deviation: 0.00702577
Generation: 1199		Mean: 0.06113797		Best: 0.1215426		Worst: 0.04152623		Standard Deviation: 0.006693355
Generation: 1299		Mean: 0.06010933		Best: 0.1088271		Worst: 0.03946114		Standard Deviation: 0.006274794
Generation: 1399		Mean: 0.06108938		Best: 0.1308067		Worst: 0.03970571		Standard Deviation: 0.006844875
Generation: 1499		Mean: 0.06124274		Best: 0.1098763		Worst: 0.04269154		Standard Deviation: 0.0064727
Generation: 1599		Mean: 0.06093255		Best: 0.1220831		Worst: 0.0402329		Standard Deviation: 0.006565589
Generation: 1699		Mean: 0.06079083		Best: 0.1027979		Worst: 0.04291035		Standard Deviation: 0.006460653
Generation: 1799		Mean: 0.06099966		Best: 0.1173934		Worst: 0.04228716		Standard Deviation: 0.006755355
Generation: 1899		Mean: 0.06103385		Best: 0.1235455		Worst: 0.04144009		Standard Deviation: 0.006731088
Generation: 1999		Mean: 0.06061462		Best: 0.1103573		Worst: 0.04030966		Standard Deviation: 0.006440919
Generation: 2099		Mean: 0.06087778		Best: 0.1163358		Worst: 0.04200358		Standard Deviation: 0.006685598
Generation: 2199		Mean: 0.06109491		Best: 0.1192993		Worst: 0.04150705		Standard Deviation: 0.006837792
Generation: 2299		Mean: 0.06166057		Best: 0.1108896		Worst: 0.03880088		Standard Deviation: 0.006750466
Generation: 2399		Mean: 0.06119113		Best: 0.1097995		Worst: 0.03922114		Standard Deviation: 0.006646259
Generation: 2499		Mean: 0.06140582		Best: 0.1129689		Worst: 0.04224193		Standard Deviation: 0.006874997
Generation: 2599		Mean: 0.06048211		Best: 0.106643		Worst: 0.03964431		Standard Deviation: 0.006628471
Generation: 2699		Mean: 0.06095985		Best: 0.1116718		Worst: 0.04125702		Standard Deviation: 0.006857738
Generation: 2799		Mean: 0.06110852		Best: 0.1127954		Worst: 0.04142358		Standard Deviation: 0.006847962
Generation: 2899		Mean: 0.06079093		Best: 0.1195138		Worst: 0.04179517		Standard Deviation: 0.006594571
Generation: 2999		Mean: 0.06082982		Best: 0.1139595		Worst: 0.04119758		Standard Deviation: 0.006506048

Mean: 0.0609764		Best: 0.1130285		Standard Deviation: 0.006673151
