Generation: 99		Mean: 0.2099875		Best: 0.2988034		Worst: 0		Standard Deviation: 0.0797361
Generation: 199		Mean: 0.2123911		Best: 0.3113702		Worst: 0		Standard Deviation: 0.08172984
Generation: 299		Mean: 0.2348795		Best: 0.3181865		Worst: 0		Standard Deviation: 0.06713279
Generation: 399		Mean: 0.2162287		Best: 0.3068951		Worst: 0		Standard Deviation: 0.07683711
Generation: 499		Mean: 0.2137309		Best: 0.2945642		Worst: 0		Standard Deviation: 0.06206203
Generation: 599		Mean: 0.2323556		Best: 0.3273346		Worst: 0		Standard Deviation: 0.07920728
Generation: 699		Mean: 0.2273934		Best: 0.3410037		Worst: 0		Standard Deviation: 0.09549303
Generation: 799		Mean: 0.2446103		Best: 0.3941518		Worst: 0		Standard Deviation: 0.1073046
Generation: 899		Mean: 0.2562376		Best: 0.3581372		Worst: 0		Standard Deviation: 0.06704726
Generation: 999		Mean: 0.2417726		Best: 0.367458		Worst: 0		Standard Deviation: 0.09285842
Generation: 1099		Mean: 0.175556		Best: 0.2846153		Worst: 0		Standard Deviation: 0.08521558
Generation: 1199		Mean: 0.2266383		Best: 0.3433948		Worst: 0		Standard Deviation: 0.08995335
Generation: 1299		Mean: 0.2385247		Best: 0.3301011		Worst: 0		Standard Deviation: 0.06785442
Generation: 1399		Mean: 0.2270262		Best: 0.3158459		Worst: 0		Standard Deviation: 0.06001785
Generation: 1499		Mean: 0.2544807		Best: 0.3373374		Worst: 0		Standard Deviation: 0.05835951
Generation: 1599		Mean: 0.2224152		Best: 0.3380225		Worst: 0		Standard Deviation: 0.06861211
Generation: 1699		Mean: 0.22341		Best: 0.3351459		Worst: 0		Standard Deviation: 0.09537687
Generation: 1799		Mean: 0.2362031		Best: 0.3446917		Worst: 0		Standard Deviation: 0.06726805
Generation: 1899		Mean: 0.2662978		Best: 0.3486148		Worst: 0		Standard Deviation: 0.06828474
Generation: 1999		Mean: 0.2143801		Best: 0.3412789		Worst: 0		Standard Deviation: 0.1090909
Generation: 2099		Mean: 0.2465546		Best: 0.3536413		Worst: 0		Standard Deviation: 0.08368605
Generation: 2199		Mean: 0.2127962		Best: 0.2991859		Worst: 0		Standard Deviation: 0.06480004
Generation: 2299		Mean: 0.2340609		Best: 0.3895788		Worst: 0		Standard Deviation: 0.1145363
Generation: 2399		Mean: 0.2328573		Best: 0.3052118		Worst: 0		Standard Deviation: 0.05129122
Generation: 2499		Mean: 0.2694793		Best: 0.3807258		Worst: 0		Standard Deviation: 0.0873608
Generation: 2599		Mean: 0.2126349		Best: 0.3110715		Worst: 0		Standard Deviation: 0.07783179
Generation: 2699		Mean: 0.2649562		Best: 0.3670306		Worst: 0		Standard Deviation: 0.08739827
Generation: 2799		Mean: 0.2440949		Best: 0.3238287		Worst: 0		Standard Deviation: 0.07428347
Generation: 2899		Mean: 0.2215917		Best: 0.3251109		Worst: 0		Standard Deviation: 0.07625478
Generation: 2999		Mean: 0.2113653		Best: 0.3145033		Worst: 0		Standard Deviation: 0.06455009

Mean: 0.2308303		Best: 0.3335614		Standard Deviation: 0.07871448
