Generation: 99		Mean: 0.1625543		Best: 0.3127265		Worst: 0		Standard Deviation: 0.05263903
Generation: 199		Mean: 0.188598		Best: 0.300779		Worst: 0		Standard Deviation: 0.05462171
Generation: 299		Mean: 0.1680588		Best: 0.2926571		Worst: 0		Standard Deviation: 0.05083462
Generation: 399		Mean: 0.1521546		Best: 0.2597424		Worst: 0		Standard Deviation: 0.04863967
Generation: 499		Mean: 0.1806857		Best: 0.3230671		Worst: 0		Standard Deviation: 0.05910205
Generation: 599		Mean: 0.2127096		Best: 0.3469751		Worst: 0		Standard Deviation: 0.06381592
Generation: 699		Mean: 0.1639531		Best: 0.2784005		Worst: 0		Standard Deviation: 0.05133908
Generation: 799		Mean: 0.2147021		Best: 0.329125		Worst: 0		Standard Deviation: 0.05788632
Generation: 899		Mean: 0.1573069		Best: 0.2745991		Worst: 0		Standard Deviation: 0.05452638
Generation: 999		Mean: 0.153759		Best: 0.244399		Worst: 0		Standard Deviation: 0.03960466
Generation: 1099		Mean: 0.2162071		Best: 0.3407209		Worst: 0		Standard Deviation: 0.06362569
Generation: 1199		Mean: 0.1302209		Best: 0.2575869		Worst: 0		Standard Deviation: 0.0469989
Generation: 1299		Mean: 0.1837057		Best: 0.3102384		Worst: 0		Standard Deviation: 0.04931119
Generation: 1399		Mean: 0.1570557		Best: 0.2450653		Worst: 0		Standard Deviation: 0.04355307
Generation: 1499		Mean: 0.1809112		Best: 0.2975673		Worst: 0		Standard Deviation: 0.05779744
Generation: 1599		Mean: 0.2275333		Best: 0.3850391		Worst: 0		Standard Deviation: 0.07698636
Generation: 1699		Mean: 0.160264		Best: 0.2801805		Worst: 0		Standard Deviation: 0.05473778
Generation: 1799		Mean: 0.1874958		Best: 0.291613		Worst: 0		Standard Deviation: 0.0514101
Generation: 1899		Mean: 0.2433759		Best: 0.376765		Worst: 0		Standard Deviation: 0.07015865
Generation: 1999		Mean: 0.1712574		Best: 0.3013108		Worst: 0		Standard Deviation: 0.0533033
Generation: 2099		Mean: 0.1423764		Best: 0.2356057		Worst: 0		Standard Deviation: 0.04729509
Generation: 2199		Mean: 0.170884		Best: 0.2737478		Worst: 0		Standard Deviation: 0.05179553
Generation: 2299		Mean: 0.1617728		Best: 0.2739926		Worst: 0		Standard Deviation: 0.05230008
Generation: 2399		Mean: 0.1693432		Best: 0.3025258		Worst: 0		Standard Deviation: 0.05790177
Generation: 2499		Mean: 0.1985698		Best: 0.3017769		Worst: 0		Standard Deviation: 0.05342889
Generation: 2599		Mean: 0.1694031		Best: 0.3276621		Worst: 0		Standard Deviation: 0.05960836
Generation: 2699		Mean: 0.1856251		Best: 0.2924882		Worst: 0		Standard Deviation: 0.05320386
Generation: 2799		Mean: 0.2283517		Best: 0.3768493		Worst: 0		Standard Deviation: 0.07244423
Generation: 2899		Mean: 0.2063377		Best: 0.311472		Worst: 0		Standard Deviation: 0.05866422
Generation: 2999		Mean: 0.1658172		Best: 0.2957942		Worst: 0		Standard Deviation: 0.05649292

Mean: 0.1803663		Best: 0.3013491		Standard Deviation: 0.05546755
