Generation: 99		Mean: 0.3418935		Best: 0.4799705		Worst: 0.1689805		Standard Deviation: 0.08208946
Generation: 199		Mean: 0.3862253		Best: 0.5193644		Worst: 0.1453843		Standard Deviation: 0.08562189
Generation: 299		Mean: 0.3906688		Best: 0.5166178		Worst: 0.2079675		Standard Deviation: 0.07628339
Generation: 399		Mean: 0.378273		Best: 0.5444998		Worst: 0.1950078		Standard Deviation: 0.07581861
Generation: 499		Mean: 0.3648867		Best: 0.493206		Worst: 0.1597887		Standard Deviation: 0.08428013
Generation: 599		Mean: 0.3827491		Best: 0.4831909		Worst: 0.1658785		Standard Deviation: 0.07717467
Generation: 699		Mean: 0.4135323		Best: 0.5360151		Worst: 0.1836271		Standard Deviation: 0.08119082
Generation: 799		Mean: 0.3633778		Best: 0.4778319		Worst: 0.1566157		Standard Deviation: 0.07603006
Generation: 899		Mean: 0.4043297		Best: 0.5379651		Worst: 0.1709499		Standard Deviation: 0.08282876
Generation: 999		Mean: 0.4106463		Best: 0.5336558		Worst: 0.1945346		Standard Deviation: 0.07735241
Generation: 1099		Mean: 0.3920376		Best: 0.5145741		Worst: 0.1620181		Standard Deviation: 0.08224406
Generation: 1199		Mean: 0.3573582		Best: 0.4807532		Worst: 0.1792488		Standard Deviation: 0.06990879
Generation: 1299		Mean: 0.3875858		Best: 0.5152452		Worst: 0.1724333		Standard Deviation: 0.08471108
Generation: 1399		Mean: 0.4033507		Best: 0.5334918		Worst: 0.199768		Standard Deviation: 0.0801993
Generation: 1499		Mean: 0.3649921		Best: 0.4636665		Worst: 0.1632605		Standard Deviation: 0.06867918
Generation: 1599		Mean: 0.3633545		Best: 0.5026835		Worst: 0.1742915		Standard Deviation: 0.07771433
Generation: 1699		Mean: 0.3973082		Best: 0.5312939		Worst: 0.2166557		Standard Deviation: 0.07190351
Generation: 1799		Mean: 0.3920096		Best: 0.5059416		Worst: 0.1707317		Standard Deviation: 0.07865033
Generation: 1899		Mean: 0.3975062		Best: 0.5357996		Worst: 0.1723305		Standard Deviation: 0.08176016
Generation: 1999		Mean: 0.3906076		Best: 0.5063553		Worst: 0.1668761		Standard Deviation: 0.08596637
Generation: 2099		Mean: 0.3903186		Best: 0.5237292		Worst: 0.2251022		Standard Deviation: 0.07806271
Generation: 2199		Mean: 0.3901942		Best: 0.5191759		Worst: 0.1703809		Standard Deviation: 0.08470634
Generation: 2299		Mean: 0.3983254		Best: 0.5129104		Worst: 0.1895566		Standard Deviation: 0.08595709
Generation: 2399		Mean: 0.387996		Best: 0.5147164		Worst: 0.1851596		Standard Deviation: 0.07240377
Generation: 2499		Mean: 0.3549884		Best: 0.4991971		Worst: 0.1668202		Standard Deviation: 0.08612868
Generation: 2599		Mean: 0.374324		Best: 0.4965183		Worst: 0.1597239		Standard Deviation: 0.08376264
Generation: 2699		Mean: 0.4007738		Best: 0.5125009		Worst: 0.1985026		Standard Deviation: 0.07929971
Generation: 2799		Mean: 0.3861011		Best: 0.5320731		Worst: 0.1521511		Standard Deviation: 0.08848844
Generation: 2899		Mean: 0.4069304		Best: 0.5421507		Worst: 0.1902017		Standard Deviation: 0.08394346
Generation: 2999		Mean: 0.3953251		Best: 0.503903		Worst: 0.1700986		Standard Deviation: 0.07661157

Mean: 0.385599		Best: 0.5122998		Standard Deviation: 0.07999238
