Generation: 99		Mean: 0.3782475		Best: 0.4945026		Worst: 0.1920761		Standard Deviation: 0.08623613
Generation: 199		Mean: 0.3578231		Best: 0.4924396		Worst: 0.1811674		Standard Deviation: 0.09026112
Generation: 299		Mean: 0.3592968		Best: 0.498658		Worst: 0.1571667		Standard Deviation: 0.07581387
Generation: 399		Mean: 0.3713877		Best: 0.5118862		Worst: 0.1678005		Standard Deviation: 0.07862685
Generation: 499		Mean: 0.3629848		Best: 0.4834053		Worst: 0.1748837		Standard Deviation: 0.08729061
Generation: 599		Mean: 0.3783596		Best: 0.5232946		Worst: 0.1678167		Standard Deviation: 0.08477879
Generation: 699		Mean: 0.3866708		Best: 0.5375765		Worst: 0.1775289		Standard Deviation: 0.08604224
Generation: 799		Mean: 0.3961687		Best: 0.5337997		Worst: 0.1922159		Standard Deviation: 0.09362626
Generation: 899		Mean: 0.3541709		Best: 0.4940619		Worst: 0.1541685		Standard Deviation: 0.08630834
Generation: 999		Mean: 0.3697763		Best: 0.5091182		Worst: 0.1591845		Standard Deviation: 0.09013575
Generation: 1099		Mean: 0.3829573		Best: 0.5100898		Worst: 0.1554064		Standard Deviation: 0.08492367
Generation: 1199		Mean: 0.3814018		Best: 0.5018353		Worst: 0.1496218		Standard Deviation: 0.07648395
Generation: 1299		Mean: 0.3804235		Best: 0.5352098		Worst: 0.1970245		Standard Deviation: 0.08921356
Generation: 1399		Mean: 0.3932619		Best: 0.5406048		Worst: 0.1836409		Standard Deviation: 0.09174254
Generation: 1499		Mean: 0.3959614		Best: 0.5367091		Worst: 0.197226		Standard Deviation: 0.08650671
Generation: 1599		Mean: 0.3590182		Best: 0.4731221		Worst: 0.1613747		Standard Deviation: 0.0795432
Generation: 1699		Mean: 0.3812901		Best: 0.5143648		Worst: 0.1722097		Standard Deviation: 0.08414155
Generation: 1799		Mean: 0.385121		Best: 0.5044186		Worst: 0.2050183		Standard Deviation: 0.07737331
Generation: 1899		Mean: 0.3777874		Best: 0.4750764		Worst: 0.1876361		Standard Deviation: 0.0722318
Generation: 1999		Mean: 0.3822185		Best: 0.5039701		Worst: 0.1490669		Standard Deviation: 0.08036242
Generation: 2099		Mean: 0.3461139		Best: 0.468621		Worst: 0.1443863		Standard Deviation: 0.08298779
Generation: 2199		Mean: 0.390285		Best: 0.5202042		Worst: 0.1865625		Standard Deviation: 0.08342273
Generation: 2299		Mean: 0.3741352		Best: 0.492892		Worst: 0.18619		Standard Deviation: 0.09039051
Generation: 2399		Mean: 0.4091027		Best: 0.5370648		Worst: 0.182786		Standard Deviation: 0.09497487
Generation: 2499		Mean: 0.3753696		Best: 0.507443		Worst: 0.1539242		Standard Deviation: 0.08059712
Generation: 2599		Mean: 0.3532173		Best: 0.4623101		Worst: 0.1656287		Standard Deviation: 0.08097076
Generation: 2699		Mean: 0.3809636		Best: 0.4981629		Worst: 0.1787165		Standard Deviation: 0.07836769
Generation: 2799		Mean: 0.3621418		Best: 0.486709		Worst: 0.1480605		Standard Deviation: 0.07687225
Generation: 2899		Mean: 0.3726301		Best: 0.5097517		Worst: 0.1896199		Standard Deviation: 0.08696671
Generation: 2999		Mean: 0.3708145		Best: 0.4987759		Worst: 0.1788612		Standard Deviation: 0.09506111

Mean: 0.3756366		Best: 0.5052026		Standard Deviation: 0.08440848
