Generation: 99		Mean: 0.09679106		Best: 0.169931		Worst: 0.06266297		Standard Deviation: 0.0141955
Generation: 199		Mean: 0.08998291		Best: 0.1460926		Worst: 0.06609742		Standard Deviation: 0.01127461
Generation: 299		Mean: 0.09401508		Best: 0.1680893		Worst: 0.06192088		Standard Deviation: 0.01305701
Generation: 399		Mean: 0.09268693		Best: 0.1630121		Worst: 0.05142987		Standard Deviation: 0.01193591
Generation: 499		Mean: 0.0914731		Best: 0.162135		Worst: 0.0638172		Standard Deviation: 0.01045565
Generation: 599		Mean: 0.09300575		Best: 0.1736751		Worst: 0.06124758		Standard Deviation: 0.0124406
Generation: 699		Mean: 0.08793081		Best: 0.1351403		Worst: 0.05956031		Standard Deviation: 0.01077554
Generation: 799		Mean: 0.09258484		Best: 0.1573301		Worst: 0.06320675		Standard Deviation: 0.01331431
Generation: 899		Mean: 0.08820044		Best: 0.1578266		Worst: 0.06210386		Standard Deviation: 0.01263613
Generation: 999		Mean: 0.0898467		Best: 0.152915		Worst: 0.05676692		Standard Deviation: 0.01271366
Generation: 1099		Mean: 0.08885095		Best: 0.1362499		Worst: 0.06578302		Standard Deviation: 0.009293821
Generation: 1199		Mean: 0.1004662		Best: 0.159951		Worst: 0.06978343		Standard Deviation: 0.01386455
Generation: 1299		Mean: 0.08861981		Best: 0.1637715		Worst: 0.06929018		Standard Deviation: 0.01030787
Generation: 1399		Mean: 0.09394836		Best: 0.1606725		Worst: 0.06807081		Standard Deviation: 0.01023797
Generation: 1499		Mean: 0.09410347		Best: 0.1399957		Worst: 0.06001236		Standard Deviation: 0.01222397
Generation: 1599		Mean: 0.09818307		Best: 0.1670598		Worst: 0.06573953		Standard Deviation: 0.01260682
Generation: 1699		Mean: 0.08944516		Best: 0.1708365		Worst: 0.06627492		Standard Deviation: 0.01217767
Generation: 1799		Mean: 0.09276362		Best: 0.1532415		Worst: 0.06104278		Standard Deviation: 0.01204988
Generation: 1899		Mean: 0.09128775		Best: 0.1635769		Worst: 0.06932589		Standard Deviation: 0.01048367
Generation: 1999		Mean: 0.09687597		Best: 0.169728		Worst: 0.0719961		Standard Deviation: 0.01025511
Generation: 2099		Mean: 0.09152561		Best: 0.156596		Worst: 0.06484763		Standard Deviation: 0.01189761
Generation: 2199		Mean: 0.09118442		Best: 0.1544013		Worst: 0.06288527		Standard Deviation: 0.009799678
Generation: 2299		Mean: 0.08885989		Best: 0.1415819		Worst: 0.06347333		Standard Deviation: 0.0113657
Generation: 2399		Mean: 0.08788072		Best: 0.1510788		Worst: 0.05584112		Standard Deviation: 0.01032305
Generation: 2499		Mean: 0.09006219		Best: 0.1411688		Worst: 0.06782061		Standard Deviation: 0.01019863
Generation: 2599		Mean: 0.09719657		Best: 0.1718786		Worst: 0.06474689		Standard Deviation: 0.01470425
Generation: 2699		Mean: 0.08973558		Best: 0.1561662		Worst: 0.06243863		Standard Deviation: 0.01296705
Generation: 2799		Mean: 0.08288001		Best: 0.1577739		Worst: 0.0617343		Standard Deviation: 0.00935521
Generation: 2899		Mean: 0.09334859		Best: 0.1781717		Worst: 0.06294673		Standard Deviation: 0.01245417
Generation: 2999		Mean: 0.09312727		Best: 0.1548727		Worst: 0.0630593		Standard Deviation: 0.01057144

Mean: 0.09189541		Best: 0.1578307		Standard Deviation: 0.01166457
