Generation: 99		Mean: 0.3651247		Best: 0.4879248		Worst: 0.1647297		Standard Deviation: 0.07845037
Generation: 199		Mean: 0.3892463		Best: 0.510252		Worst: 0.2112298		Standard Deviation: 0.08942866
Generation: 299		Mean: 0.423598		Best: 0.529524		Worst: 0.1869955		Standard Deviation: 0.08867148
Generation: 399		Mean: 0.4010995		Best: 0.5399618		Worst: 0.2179735		Standard Deviation: 0.0839005
Generation: 499		Mean: 0.3749397		Best: 0.5035681		Worst: 0.196607		Standard Deviation: 0.07911822
Generation: 599		Mean: 0.3908528		Best: 0.511564		Worst: 0.1746809		Standard Deviation: 0.07228442
Generation: 699		Mean: 0.392454		Best: 0.5096773		Worst: 0.1763214		Standard Deviation: 0.08190281
Generation: 799		Mean: 0.3949295		Best: 0.5212305		Worst: 0.2074364		Standard Deviation: 0.08837999
Generation: 899		Mean: 0.3987533		Best: 0.5171954		Worst: 0.2020837		Standard Deviation: 0.07954741
Generation: 999		Mean: 0.3591912		Best: 0.496495		Worst: 0.1861165		Standard Deviation: 0.07111631
Generation: 1099		Mean: 0.3901094		Best: 0.5449261		Worst: 0.1828706		Standard Deviation: 0.08680893
Generation: 1199		Mean: 0.3546674		Best: 0.4891509		Worst: 0.1644265		Standard Deviation: 0.08969627
Generation: 1299		Mean: 0.3967993		Best: 0.5385953		Worst: 0.2096331		Standard Deviation: 0.07747704
Generation: 1399		Mean: 0.3691795		Best: 0.4949637		Worst: 0.1720448		Standard Deviation: 0.07890031
Generation: 1499		Mean: 0.3856853		Best: 0.5139688		Worst: 0.1972537		Standard Deviation: 0.07747395
Generation: 1599		Mean: 0.3820549		Best: 0.5087293		Worst: 0.1553052		Standard Deviation: 0.08704191
Generation: 1699		Mean: 0.3582735		Best: 0.4883412		Worst: 0.1549005		Standard Deviation: 0.08719711
Generation: 1799		Mean: 0.3674493		Best: 0.5147831		Worst: 0.1629599		Standard Deviation: 0.08347992
Generation: 1899		Mean: 0.376054		Best: 0.5287347		Worst: 0.1654864		Standard Deviation: 0.092646
Generation: 1999		Mean: 0.3853962		Best: 0.5348006		Worst: 0.1894894		Standard Deviation: 0.08912731
Generation: 2099		Mean: 0.4186129		Best: 0.5201133		Worst: 0.2368796		Standard Deviation: 0.07249605
Generation: 2199		Mean: 0.3627957		Best: 0.5065263		Worst: 0.1428793		Standard Deviation: 0.09120559
Generation: 2299		Mean: 0.3728854		Best: 0.5026185		Worst: 0.165533		Standard Deviation: 0.08667722
Generation: 2399		Mean: 0.3894998		Best: 0.5310522		Worst: 0.205584		Standard Deviation: 0.08249781
Generation: 2499		Mean: 0.3702938		Best: 0.4931696		Worst: 0.1559743		Standard Deviation: 0.08943345
Generation: 2599		Mean: 0.3926357		Best: 0.5339929		Worst: 0.1900747		Standard Deviation: 0.09133501
Generation: 2699		Mean: 0.416882		Best: 0.5403128		Worst: 0.1880505		Standard Deviation: 0.07867348
Generation: 2799		Mean: 0.3999411		Best: 0.5214033		Worst: 0.2168402		Standard Deviation: 0.07382338
Generation: 2899		Mean: 0.3853759		Best: 0.5087465		Worst: 0.1615003		Standard Deviation: 0.08249649
Generation: 2999		Mean: 0.3919694		Best: 0.5120259		Worst: 0.181866		Standard Deviation: 0.08667764

Mean: 0.385225		Best: 0.5151449		Standard Deviation: 0.08326551
