Generation: 99		Mean: 0.4260627		Best: 0.536714		Worst: 0		Standard Deviation: 0.1281269
Generation: 199		Mean: 0.4383312		Best: 0.5359781		Worst: 0		Standard Deviation: 0.1031619
Generation: 299		Mean: 0.4247389		Best: 0.5103931		Worst: 0		Standard Deviation: 0.1025051
Generation: 399		Mean: 0.4205643		Best: 0.5472504		Worst: 0		Standard Deviation: 0.1187204
Generation: 499		Mean: 0.4198081		Best: 0.4756058		Worst: 0		Standard Deviation: 0.06149273
Generation: 599		Mean: 0.4046893		Best: 0.4939112		Worst: 0		Standard Deviation: 0.1096756
Generation: 699		Mean: 0.4595842		Best: 0.5321682		Worst: 0		Standard Deviation: 0.07988766
Generation: 799		Mean: 0.4203572		Best: 0.4940827		Worst: 0		Standard Deviation: 0.08496962
Generation: 899		Mean: 0.4293559		Best: 0.5317269		Worst: 0		Standard Deviation: 0.1101698
Generation: 999		Mean: 0.4303891		Best: 0.514542		Worst: 0		Standard Deviation: 0.08813324
Generation: 1099		Mean: 0.427292		Best: 0.524667		Worst: 0		Standard Deviation: 0.105834
Generation: 1199		Mean: 0.4537025		Best: 0.5221397		Worst: 0		Standard Deviation: 0.08058307
Generation: 1299		Mean: 0.4311654		Best: 0.5064436		Worst: 0		Standard Deviation: 0.08931378
Generation: 1399		Mean: 0.4537923		Best: 0.5457519		Worst: 0		Standard Deviation: 0.1068268
Generation: 1499		Mean: 0.4394008		Best: 0.5166298		Worst: 0		Standard Deviation: 0.08424678
Generation: 1599		Mean: 0.4441127		Best: 0.5098662		Worst: 0		Standard Deviation: 0.08354174
Generation: 1699		Mean: 0.4182823		Best: 0.5200277		Worst: 0		Standard Deviation: 0.1088347
Generation: 1799		Mean: 0.4447732		Best: 0.5160472		Worst: 0		Standard Deviation: 0.08804451
Generation: 1899		Mean: 0.4353483		Best: 0.5002147		Worst: 0		Standard Deviation: 0.07833122
Generation: 1999		Mean: 0.443724		Best: 0.5081977		Worst: 0		Standard Deviation: 0.07637818
Generation: 2099		Mean: 0.4333611		Best: 0.5128351		Worst: 0		Standard Deviation: 0.08976671
Generation: 2199		Mean: 0.4560801		Best: 0.5499997		Worst: 0		Standard Deviation: 0.101088
Generation: 2299		Mean: 0.4653701		Best: 0.5486043		Worst: 0		Standard Deviation: 0.09454203
Generation: 2399		Mean: 0.405946		Best: 0.4953993		Worst: 0		Standard Deviation: 0.1012211
Generation: 2499		Mean: 0.4368765		Best: 0.4839672		Worst: 0		Standard Deviation: 0.0608466
Generation: 2599		Mean: 0.4550554		Best: 0.5091723		Worst: 0		Standard Deviation: 0.06300225
Generation: 2699		Mean: 0.4474331		Best: 0.5252922		Worst: 0		Standard Deviation: 0.09844193
Generation: 2799		Mean: 0.435481		Best: 0.4945743		Worst: 0		Standard Deviation: 0.06636333
Generation: 2899		Mean: 0.4565237		Best: 0.5346269		Worst: 0		Standard Deviation: 0.08516392
Generation: 2999		Mean: 0.4523661		Best: 0.534247		Worst: 0		Standard Deviation: 0.08998511

Mean: 0.4369989		Best: 0.5177026		Standard Deviation: 0.09130662
