Generation: 99		Mean: 0.4387805		Best: 0.5152676		Worst: 0		Standard Deviation: 0.08805022
Generation: 199		Mean: 0.4545376		Best: 0.5447094		Worst: 0		Standard Deviation: 0.1000204
Generation: 299		Mean: 0.4254105		Best: 0.5093064		Worst: 0		Standard Deviation: 0.09653176
Generation: 399		Mean: 0.4396389		Best: 0.5344632		Worst: 0		Standard Deviation: 0.1076449
Generation: 499		Mean: 0.4494883		Best: 0.5298358		Worst: 0		Standard Deviation: 0.08760096
Generation: 599		Mean: 0.4403072		Best: 0.533619		Worst: 0		Standard Deviation: 0.1072613
Generation: 699		Mean: 0.442263		Best: 0.5161783		Worst: 0		Standard Deviation: 0.08562487
Generation: 799		Mean: 0.4185489		Best: 0.4958653		Worst: 0		Standard Deviation: 0.09457181
Generation: 899		Mean: 0.4362593		Best: 0.5259303		Worst: 0		Standard Deviation: 0.09874391
Generation: 999		Mean: 0.4472051		Best: 0.5407978		Worst: 0		Standard Deviation: 0.1066978
Generation: 1099		Mean: 0.4557445		Best: 0.5407657		Worst: 0		Standard Deviation: 0.09410793
Generation: 1199		Mean: 0.4461725		Best: 0.5409922		Worst: 0		Standard Deviation: 0.1043
Generation: 1299		Mean: 0.4486868		Best: 0.523059		Worst: 0		Standard Deviation: 0.08543845
Generation: 1399		Mean: 0.4324252		Best: 0.5133289		Worst: 0		Standard Deviation: 0.09419932
Generation: 1499		Mean: 0.4453609		Best: 0.5456418		Worst: 0		Standard Deviation: 0.1136683
Generation: 1599		Mean: 0.4447574		Best: 0.5461794		Worst: 0		Standard Deviation: 0.1104893
Generation: 1699		Mean: 0.4491441		Best: 0.5368126		Worst: 0		Standard Deviation: 0.1012481
Generation: 1799		Mean: 0.4403196		Best: 0.522981		Worst: 0		Standard Deviation: 0.09274951
Generation: 1899		Mean: 0.456807		Best: 0.5453244		Worst: 0		Standard Deviation: 0.1030148
Generation: 1999		Mean: 0.4485078		Best: 0.5352097		Worst: 0		Standard Deviation: 0.09937671
Generation: 2099		Mean: 0.4371209		Best: 0.5133346		Worst: 0		Standard Deviation: 0.08669875
Generation: 2199		Mean: 0.4541629		Best: 0.5486689		Worst: 0		Standard Deviation: 0.1043854
Generation: 2299		Mean: 0.4426368		Best: 0.5398235		Worst: 0		Standard Deviation: 0.1094284
Generation: 2399		Mean: 0.4349557		Best: 0.5106471		Worst: 0		Standard Deviation: 0.08747958
Generation: 2499		Mean: 0.4289402		Best: 0.5029796		Worst: 0		Standard Deviation: 0.08461451
Generation: 2599		Mean: 0.444667		Best: 0.5213927		Worst: 0		Standard Deviation: 0.0854461
Generation: 2699		Mean: 0.4379995		Best: 0.5179045		Worst: 0		Standard Deviation: 0.09223019
Generation: 2799		Mean: 0.442628		Best: 0.5261821		Worst: 0		Standard Deviation: 0.09355825
Generation: 2899		Mean: 0.4490239		Best: 0.5408469		Worst: 0		Standard Deviation: 0.1049096
Generation: 2999		Mean: 0.4560233		Best: 0.5496016		Worst: 0		Standard Deviation: 0.1045848

Mean: 0.4429507		Best: 0.5289216		Standard Deviation: 0.09748921
