Generation: 99		Mean: 0.246288		Best: 0.3778326		Worst: 0		Standard Deviation: 0.08842297
Generation: 199		Mean: 0.189799		Best: 0.2746407		Worst: 0		Standard Deviation: 0.06137927
Generation: 299		Mean: 0.2352891		Best: 0.3778958		Worst: 0		Standard Deviation: 0.09097958
Generation: 399		Mean: 0.2225319		Best: 0.2845387		Worst: 0		Standard Deviation: 0.05228748
Generation: 499		Mean: 0.232908		Best: 0.3165269		Worst: 0		Standard Deviation: 0.05559542
Generation: 599		Mean: 0.2135813		Best: 0.3425193		Worst: 0		Standard Deviation: 0.07286635
Generation: 699		Mean: 0.2188509		Best: 0.3307243		Worst: 0		Standard Deviation: 0.09018599
Generation: 799		Mean: 0.2414586		Best: 0.3202986		Worst: 0		Standard Deviation: 0.0634671
Generation: 899		Mean: 0.243528		Best: 0.3191314		Worst: 0		Standard Deviation: 0.06949749
Generation: 999		Mean: 0.2011892		Best: 0.2829497		Worst: 0		Standard Deviation: 0.06697853
Generation: 1099		Mean: 0.1862502		Best: 0.2877298		Worst: 0		Standard Deviation: 0.07691182
Generation: 1199		Mean: 0.1887998		Best: 0.3249888		Worst: 0		Standard Deviation: 0.09298444
Generation: 1299		Mean: 0.1929376		Best: 0.2882768		Worst: 0		Standard Deviation: 0.08082264
Generation: 1399		Mean: 0.2255661		Best: 0.3096345		Worst: 0		Standard Deviation: 0.07021905
Generation: 1499		Mean: 0.2247417		Best: 0.3445233		Worst: 0		Standard Deviation: 0.08893017
Generation: 1599		Mean: 0.2150314		Best: 0.316692		Worst: 0		Standard Deviation: 0.07581614
Generation: 1699		Mean: 0.2217467		Best: 0.3319874		Worst: 0		Standard Deviation: 0.08709215
Generation: 1799		Mean: 0.2263829		Best: 0.3332227		Worst: 0		Standard Deviation: 0.09503111
Generation: 1899		Mean: 0.1765119		Best: 0.2390545		Worst: 0		Standard Deviation: 0.04779545
Generation: 1999		Mean: 0.2359116		Best: 0.3137765		Worst: 0		Standard Deviation: 0.05665525
Generation: 2099		Mean: 0.2300613		Best: 0.3333142		Worst: 0		Standard Deviation: 0.06236557
Generation: 2199		Mean: 0.2212254		Best: 0.3083965		Worst: 0		Standard Deviation: 0.05730421
Generation: 2299		Mean: 0.2227932		Best: 0.3126914		Worst: 0		Standard Deviation: 0.05880312
Generation: 2399		Mean: 0.2196767		Best: 0.3008625		Worst: 0		Standard Deviation: 0.05580229
Generation: 2499		Mean: 0.1890141		Best: 0.2682769		Worst: 0		Standard Deviation: 0.0664908
Generation: 2599		Mean: 0.1941292		Best: 0.2909902		Worst: 0		Standard Deviation: 0.07778785
Generation: 2699		Mean: 0.1588787		Best: 0.2412228		Worst: 0		Standard Deviation: 0.0655663
Generation: 2799		Mean: 0.1915857		Best: 0.3291301		Worst: 0		Standard Deviation: 0.1042855
Generation: 2899		Mean: 0.2169086		Best: 0.3057779		Worst: 0		Standard Deviation: 0.07465705
Generation: 2999		Mean: 0.2015721		Best: 0.2812418		Worst: 0		Standard Deviation: 0.05088469

Mean: 0.2128383		Best: 0.3096282		Standard Deviation: 0.07192886
