Generation: 99		Mean: 0.1829551		Best: 0.28402		Worst: 0		Standard Deviation: 0.05384944
Generation: 199		Mean: 0.2163613		Best: 0.3192106		Worst: 0		Standard Deviation: 0.04995464
Generation: 299		Mean: 0.1684074		Best: 0.2710176		Worst: 0		Standard Deviation: 0.0527343
Generation: 399		Mean: 0.176728		Best: 0.260741		Worst: 0		Standard Deviation: 0.03955058
Generation: 499		Mean: 0.1155337		Best: 0.1897496		Worst: 0		Standard Deviation: 0.04294254
Generation: 599		Mean: 0.1657781		Best: 0.2677031		Worst: 0		Standard Deviation: 0.04939738
Generation: 699		Mean: 0.1926445		Best: 0.2740409		Worst: 0		Standard Deviation: 0.04053819
Generation: 799		Mean: 0.1847037		Best: 0.3023153		Worst: 0		Standard Deviation: 0.06050749
Generation: 899		Mean: 0.127539		Best: 0.2211081		Worst: 0		Standard Deviation: 0.06312518
Generation: 999		Mean: 0.1761766		Best: 0.2539862		Worst: 0		Standard Deviation: 0.04682803
Generation: 1099		Mean: 0.1808088		Best: 0.281473		Worst: 0		Standard Deviation: 0.0545978
Generation: 1199		Mean: 0.1308676		Best: 0.2579923		Worst: 0		Standard Deviation: 0.05145063
Generation: 1299		Mean: 0.1532841		Best: 0.2713907		Worst: 0		Standard Deviation: 0.05251314
Generation: 1399		Mean: 0.1485921		Best: 0.2496182		Worst: 0		Standard Deviation: 0.04507388
Generation: 1499		Mean: 0.1614687		Best: 0.2523013		Worst: 0		Standard Deviation: 0.05020372
Generation: 1599		Mean: 0.1976912		Best: 0.2919042		Worst: 0		Standard Deviation: 0.05304758
Generation: 1699		Mean: 0.1370098		Best: 0.2472144		Worst: 0		Standard Deviation: 0.03940274
Generation: 1799		Mean: 0.1696023		Best: 0.2853256		Worst: 0		Standard Deviation: 0.05471848
Generation: 1899		Mean: 0.1435801		Best: 0.2296575		Worst: 0		Standard Deviation: 0.04660037
Generation: 1999		Mean: 0.1392176		Best: 0.2241295		Worst: 0		Standard Deviation: 0.04815901
Generation: 2099		Mean: 0.1653758		Best: 0.2521864		Worst: 0		Standard Deviation: 0.04718917
Generation: 2199		Mean: 0.1657566		Best: 0.2615564		Worst: 0		Standard Deviation: 0.04320128
Generation: 2299		Mean: 0.1846675		Best: 0.2808929		Worst: 0		Standard Deviation: 0.0485378
Generation: 2399		Mean: 0.1608133		Best: 0.2535205		Worst: 0		Standard Deviation: 0.05864346
Generation: 2499		Mean: 0.195407		Best: 0.3409178		Worst: 0		Standard Deviation: 0.07492875
Generation: 2599		Mean: 0.1353914		Best: 0.2323294		Worst: 0		Standard Deviation: 0.04536996
Generation: 2699		Mean: 0.1630887		Best: 0.2746693		Worst: 0		Standard Deviation: 0.05049755
Generation: 2799		Mean: 0.1275853		Best: 0.2075772		Worst: 0		Standard Deviation: 0.043878
Generation: 2899		Mean: 0.1279572		Best: 0.2184943		Worst: 0		Standard Deviation: 0.04114266
Generation: 2999		Mean: 0.1750378		Best: 0.2669298		Worst: 0		Standard Deviation: 0.05208048

Mean: 0.1623344		Best: 0.2607991		Standard Deviation: 0.05002214
