Generation: 99		Mean: 0.1360331		Best: 0.3370781		Worst: 0.09036959		Standard Deviation: 0.02688929
Generation: 199		Mean: 0.1329346		Best: 0.3172206		Worst: 0.08234349		Standard Deviation: 0.02236408
Generation: 299		Mean: 0.1494614		Best: 0.2768845		Worst: 0.09082865		Standard Deviation: 0.0258138
Generation: 399		Mean: 0.1393574		Best: 0.3341953		Worst: 0.08258722		Standard Deviation: 0.02334075
Generation: 499		Mean: 0.1451801		Best: 0.3407333		Worst: 0.08251027		Standard Deviation: 0.02699494
Generation: 599		Mean: 0.1373248		Best: 0.2872269		Worst: 0.07782891		Standard Deviation: 0.01639253
Generation: 699		Mean: 0.1378175		Best: 0.3001912		Worst: 0.07786493		Standard Deviation: 0.02624823
Generation: 799		Mean: 0.1432981		Best: 0.3078844		Worst: 0.08046335		Standard Deviation: 0.02293915
Generation: 899		Mean: 0.1428415		Best: 0.2993529		Worst: 0.09438807		Standard Deviation: 0.0231436
Generation: 999		Mean: 0.1395263		Best: 0.2837953		Worst: 0.09621304		Standard Deviation: 0.02001661
Generation: 1099		Mean: 0.1331883		Best: 0.3421587		Worst: 0.07606223		Standard Deviation: 0.02282287
Generation: 1199		Mean: 0.130962		Best: 0.3164218		Worst: 0.07542881		Standard Deviation: 0.02492613
Generation: 1299		Mean: 0.1454142		Best: 0.3128204		Worst: 0.0930031		Standard Deviation: 0.02541216
Generation: 1399		Mean: 0.1320822		Best: 0.3280317		Worst: 0.08337569		Standard Deviation: 0.0198555
Generation: 1499		Mean: 0.1414145		Best: 0.3386876		Worst: 0.08333558		Standard Deviation: 0.02245276
Generation: 1599		Mean: 0.1416294		Best: 0.3403957		Worst: 0.08441964		Standard Deviation: 0.02664647
Generation: 1699		Mean: 0.1403772		Best: 0.2712782		Worst: 0.09422071		Standard Deviation: 0.02030198
Generation: 1799		Mean: 0.1395818		Best: 0.270811		Worst: 0.0899874		Standard Deviation: 0.02268164
Generation: 1899		Mean: 0.1251204		Best: 0.2973036		Worst: 0.08012696		Standard Deviation: 0.01889071
Generation: 1999		Mean: 0.1339937		Best: 0.3150674		Worst: 0.09525984		Standard Deviation: 0.02556493
Generation: 2099		Mean: 0.1339787		Best: 0.3391937		Worst: 0.07037588		Standard Deviation: 0.02445534
Generation: 2199		Mean: 0.1402173		Best: 0.3278201		Worst: 0.08189634		Standard Deviation: 0.02266114
Generation: 2299		Mean: 0.1410578		Best: 0.351047		Worst: 0.08814498		Standard Deviation: 0.02344512
Generation: 2399		Mean: 0.1313403		Best: 0.2971605		Worst: 0.0929063		Standard Deviation: 0.016816
Generation: 2499		Mean: 0.1350541		Best: 0.2704833		Worst: 0.08317968		Standard Deviation: 0.01923447
Generation: 2599		Mean: 0.1398841		Best: 0.3044		Worst: 0.09001431		Standard Deviation: 0.02308849
Generation: 2699		Mean: 0.140799		Best: 0.3194852		Worst: 0.08841334		Standard Deviation: 0.02483891
Generation: 2799		Mean: 0.1500855		Best: 0.2887276		Worst: 0.09322594		Standard Deviation: 0.02437739
Generation: 2899		Mean: 0.1361935		Best: 0.3230837		Worst: 0.08909483		Standard Deviation: 0.01967863
Generation: 2999		Mean: 0.1382378		Best: 0.3510377		Worst: 0.09303972		Standard Deviation: 0.02194277

Mean: 0.1384795		Best: 0.3129993		Standard Deviation: 0.02280788
