Generation: 99		Mean: 0.1551401		Best: 0.2492086		Worst: 0.09183556		Standard Deviation: 0.02800627
Generation: 199		Mean: 0.1444847		Best: 0.2371219		Worst: 0.09444059		Standard Deviation: 0.02443074
Generation: 299		Mean: 0.1523331		Best: 0.2415882		Worst: 0.09972325		Standard Deviation: 0.02306753
Generation: 399		Mean: 0.1571334		Best: 0.2487437		Worst: 0.09113174		Standard Deviation: 0.02595815
Generation: 499		Mean: 0.1527912		Best: 0.2530296		Worst: 0.09572164		Standard Deviation: 0.0258318
Generation: 599		Mean: 0.1562206		Best: 0.2516451		Worst: 0.09904371		Standard Deviation: 0.02380108
Generation: 699		Mean: 0.141444		Best: 0.2178283		Worst: 0.08907954		Standard Deviation: 0.02085306
Generation: 799		Mean: 0.1540924		Best: 0.2470301		Worst: 0.09903434		Standard Deviation: 0.02418846
Generation: 899		Mean: 0.1498933		Best: 0.2506307		Worst: 0.09557784		Standard Deviation: 0.02133979
Generation: 999		Mean: 0.1477748		Best: 0.230076		Worst: 0.08531813		Standard Deviation: 0.02127708
Generation: 1099		Mean: 0.1416351		Best: 0.2251134		Worst: 0.09575561		Standard Deviation: 0.02347199
Generation: 1199		Mean: 0.1478093		Best: 0.2390957		Worst: 0.09411166		Standard Deviation: 0.02429297
Generation: 1299		Mean: 0.1426897		Best: 0.2296567		Worst: 0.08077075		Standard Deviation: 0.02197026
Generation: 1399		Mean: 0.1468224		Best: 0.2305322		Worst: 0.09422268		Standard Deviation: 0.02413393
Generation: 1499		Mean: 0.1624869		Best: 0.2730806		Worst: 0.06893109		Standard Deviation: 0.03283376
Generation: 1599		Mean: 0.1476423		Best: 0.2444631		Worst: 0.07886805		Standard Deviation: 0.02688535
Generation: 1699		Mean: 0.1626944		Best: 0.2697977		Worst: 0.09235803		Standard Deviation: 0.03123686
Generation: 1799		Mean: 0.1458364		Best: 0.234105		Worst: 0.07949063		Standard Deviation: 0.02505207
Generation: 1899		Mean: 0.1570849		Best: 0.2420914		Worst: 0.1001842		Standard Deviation: 0.02289344
Generation: 1999		Mean: 0.1464487		Best: 0.2363552		Worst: 0.08072944		Standard Deviation: 0.02281881
Generation: 2099		Mean: 0.1481036		Best: 0.2387438		Worst: 0.08676039		Standard Deviation: 0.02812095
Generation: 2199		Mean: 0.1565538		Best: 0.2471958		Worst: 0.08045378		Standard Deviation: 0.02653671
Generation: 2299		Mean: 0.1528898		Best: 0.226294		Worst: 0.09357011		Standard Deviation: 0.02384503
Generation: 2399		Mean: 0.1291749		Best: 0.197282		Worst: 0.08974492		Standard Deviation: 0.01664739
Generation: 2499		Mean: 0.1539703		Best: 0.2380397		Worst: 0.09649759		Standard Deviation: 0.02316952
Generation: 2599		Mean: 0.1577888		Best: 0.2435198		Worst: 0.09530411		Standard Deviation: 0.02658843
Generation: 2699		Mean: 0.1433998		Best: 0.2303508		Worst: 0.09671199		Standard Deviation: 0.01919736
Generation: 2799		Mean: 0.1528814		Best: 0.2524747		Worst: 0.08952795		Standard Deviation: 0.02767046
Generation: 2899		Mean: 0.1536263		Best: 0.2628821		Worst: 0.09319974		Standard Deviation: 0.02927342
Generation: 2999		Mean: 0.1595671		Best: 0.2670015		Worst: 0.08830453		Standard Deviation: 0.0291171

Mean: 0.1506805		Best: 0.2418326		Standard Deviation: 0.02481699
