Generation: 99		Mean: 0.1324899		Best: 0.2206222		Worst: 0.08578776		Standard Deviation: 0.01980086
Generation: 199		Mean: 0.1445649		Best: 0.2284498		Worst: 0.08607469		Standard Deviation: 0.0256782
Generation: 299		Mean: 0.1399306		Best: 0.2374842		Worst: 0.08505739		Standard Deviation: 0.02374934
Generation: 399		Mean: 0.1485221		Best: 0.2472633		Worst: 0.08675925		Standard Deviation: 0.02688478
Generation: 499		Mean: 0.1458111		Best: 0.2541252		Worst: 0.08908331		Standard Deviation: 0.02558221
Generation: 599		Mean: 0.1514678		Best: 0.2360541		Worst: 0.08626719		Standard Deviation: 0.02509694
Generation: 699		Mean: 0.1518912		Best: 0.2388564		Worst: 0.09718988		Standard Deviation: 0.02418565
Generation: 799		Mean: 0.1449747		Best: 0.2385151		Worst: 0.09806921		Standard Deviation: 0.02311464
Generation: 899		Mean: 0.1536408		Best: 0.2401064		Worst: 0.09848899		Standard Deviation: 0.02768438
Generation: 999		Mean: 0.1562196		Best: 0.2464672		Worst: 0.09045507		Standard Deviation: 0.02372297
Generation: 1099		Mean: 0.1506525		Best: 0.231234		Worst: 0.09012002		Standard Deviation: 0.02212579
Generation: 1199		Mean: 0.1442356		Best: 0.2182787		Worst: 0.08501706		Standard Deviation: 0.02353425
Generation: 1299		Mean: 0.1488381		Best: 0.228599		Worst: 0.09748297		Standard Deviation: 0.02342266
Generation: 1399		Mean: 0.1538805		Best: 0.2460471		Worst: 0.09021126		Standard Deviation: 0.02666584
Generation: 1499		Mean: 0.1552409		Best: 0.2483668		Worst: 0.08668989		Standard Deviation: 0.02612965
Generation: 1599		Mean: 0.1480961		Best: 0.2502494		Worst: 0.08980255		Standard Deviation: 0.02360165
Generation: 1699		Mean: 0.1516221		Best: 0.2487126		Worst: 0.0796026		Standard Deviation: 0.02803806
Generation: 1799		Mean: 0.1539643		Best: 0.2617561		Worst: 0.08716742		Standard Deviation: 0.03143836
Generation: 1899		Mean: 0.1594908		Best: 0.2588592		Worst: 0.0943587		Standard Deviation: 0.02516889
Generation: 1999		Mean: 0.1427914		Best: 0.2261185		Worst: 0.09210611		Standard Deviation: 0.02349044
Generation: 2099		Mean: 0.1453226		Best: 0.2355922		Worst: 0.09765999		Standard Deviation: 0.0224884
Generation: 2199		Mean: 0.1601669		Best: 0.2621572		Worst: 0.07971148		Standard Deviation: 0.02700263
Generation: 2299		Mean: 0.1438224		Best: 0.2380292		Worst: 0.07659537		Standard Deviation: 0.02694441
Generation: 2399		Mean: 0.1363944		Best: 0.2246262		Worst: 0.07984351		Standard Deviation: 0.02076354
Generation: 2499		Mean: 0.1418819		Best: 0.2453053		Worst: 0.08245414		Standard Deviation: 0.02406839
Generation: 2599		Mean: 0.1404129		Best: 0.2167115		Worst: 0.09416173		Standard Deviation: 0.02295406
Generation: 2699		Mean: 0.1462408		Best: 0.2312369		Worst: 0.07410552		Standard Deviation: 0.02692009
Generation: 2799		Mean: 0.1601859		Best: 0.251699		Worst: 0.09166705		Standard Deviation: 0.02741911
Generation: 2899		Mean: 0.1390706		Best: 0.2209471		Worst: 0.0930612		Standard Deviation: 0.02020998
Generation: 2999		Mean: 0.138469		Best: 0.2099949		Worst: 0.08736079		Standard Deviation: 0.02133278

Mean: 0.1476764		Best: 0.2380822		Standard Deviation: 0.02464063
