Generation: 99		Mean: 0.1389965		Best: 0.3714717		Worst: 0.07533224		Standard Deviation: 0.02374463
Generation: 199		Mean: 0.1395501		Best: 0.3809754		Worst: 0.04359483		Standard Deviation: 0.02489515
Generation: 299		Mean: 0.1370253		Best: 0.3714878		Worst: 0.0777827		Standard Deviation: 0.02364842
Generation: 399		Mean: 0.1391818		Best: 0.3551907		Worst: 0.08187271		Standard Deviation: 0.02371132
Generation: 499		Mean: 0.137847		Best: 0.3455631		Worst: 0.07661628		Standard Deviation: 0.02540143
Generation: 599		Mean: 0.1385103		Best: 0.3874596		Worst: 0.08341701		Standard Deviation: 0.02477837
Generation: 699		Mean: 0.1399251		Best: 0.388744		Worst: 0.07673813		Standard Deviation: 0.02596645
Generation: 799		Mean: 0.1403052		Best: 0.396179		Worst: 0.07687239		Standard Deviation: 0.02564589
Generation: 899		Mean: 0.1382906		Best: 0.4087754		Worst: 0.05474558		Standard Deviation: 0.02460807
Generation: 999		Mean: 0.1376477		Best: 0.3355743		Worst: 0.0784603		Standard Deviation: 0.02417347
Generation: 1099		Mean: 0.1390147		Best: 0.3597049		Worst: 0.06060508		Standard Deviation: 0.02528242
Generation: 1199		Mean: 0.1393203		Best: 0.4442241		Worst: 0.07723303		Standard Deviation: 0.02615902
Generation: 1299		Mean: 0.1384409		Best: 0.393016		Worst: 0.07360467		Standard Deviation: 0.02409631
Generation: 1399		Mean: 0.1417971		Best: 0.4129692		Worst: 0.08326904		Standard Deviation: 0.02601844
Generation: 1499		Mean: 0.1374158		Best: 0.4048836		Worst: 0.08190318		Standard Deviation: 0.02397692
Generation: 1599		Mean: 0.137266		Best: 0.365142		Worst: 0.08472897		Standard Deviation: 0.02358534
Generation: 1699		Mean: 0.1381487		Best: 0.3730869		Worst: 0.07596519		Standard Deviation: 0.02493145
Generation: 1799		Mean: 0.1384373		Best: 0.3477829		Worst: 0.07922123		Standard Deviation: 0.02396394
Generation: 1899		Mean: 0.1377277		Best: 0.3828185		Worst: 0.05574864		Standard Deviation: 0.02419803
Generation: 1999		Mean: 0.1397067		Best: 0.3651653		Worst: 0.08194023		Standard Deviation: 0.0254947
Generation: 2099		Mean: 0.1377979		Best: 0.367885		Worst: 0.07837205		Standard Deviation: 0.02416787
Generation: 2199		Mean: 0.1414033		Best: 0.3816774		Worst: 0.08353561		Standard Deviation: 0.02521355
Generation: 2299		Mean: 0.1404449		Best: 0.3579156		Worst: 0.07238414		Standard Deviation: 0.02463693
Generation: 2399		Mean: 0.1377079		Best: 0.3716232		Worst: 0.08146322		Standard Deviation: 0.0230464
Generation: 2499		Mean: 0.1372699		Best: 0.3984441		Worst: 0.078986		Standard Deviation: 0.02279308
Generation: 2599		Mean: 0.1382301		Best: 0.4132138		Worst: 0.07763551		Standard Deviation: 0.02488934
Generation: 2699		Mean: 0.1393476		Best: 0.3687004		Worst: 0.06311573		Standard Deviation: 0.02444008
Generation: 2799		Mean: 0.1415233		Best: 0.3828555		Worst: 0.07660449		Standard Deviation: 0.02510349
Generation: 2899		Mean: 0.1343784		Best: 0.3590246		Worst: 0.08226944		Standard Deviation: 0.02271767
Generation: 2999		Mean: 0.1383641		Best: 0.3693457		Worst: 0.07406579		Standard Deviation: 0.0254446

Mean: 0.1387007		Best: 0.3786966		Standard Deviation: 0.02455776
