Generation: 99		Mean: 0.1463697		Best: 0.2687153		Worst: 0.07081047		Standard Deviation: 0.02712323
Generation: 199		Mean: 0.1556361		Best: 0.2736475		Worst: 0.071004		Standard Deviation: 0.02772758
Generation: 299		Mean: 0.1564264		Best: 0.2933618		Worst: 0.0820132		Standard Deviation: 0.02901094
Generation: 399		Mean: 0.1573339		Best: 0.295464		Worst: 0.07858554		Standard Deviation: 0.02751563
Generation: 499		Mean: 0.1623738		Best: 0.2930933		Worst: 0.07747993		Standard Deviation: 0.02976149
Generation: 599		Mean: 0.1553917		Best: 0.3020185		Worst: 0.07005429		Standard Deviation: 0.03138338
Generation: 699		Mean: 0.1493995		Best: 0.286399		Worst: 0.07681801		Standard Deviation: 0.03008279
Generation: 799		Mean: 0.158705		Best: 0.3096537		Worst: 0.08179224		Standard Deviation: 0.02979392
Generation: 899		Mean: 0.1562068		Best: 0.2916759		Worst: 0.07567095		Standard Deviation: 0.03140455
Generation: 999		Mean: 0.1624891		Best: 0.2944725		Worst: 0.08234423		Standard Deviation: 0.02894857
Generation: 1099		Mean: 0.1593402		Best: 0.2899573		Worst: 0.07092271		Standard Deviation: 0.02862106
Generation: 1199		Mean: 0.1567918		Best: 0.3123919		Worst: 0.07911592		Standard Deviation: 0.02898403
Generation: 1299		Mean: 0.1514129		Best: 0.3127695		Worst: 0.06988641		Standard Deviation: 0.03211567
Generation: 1399		Mean: 0.1510717		Best: 0.2820999		Worst: 0.07408763		Standard Deviation: 0.02611459
Generation: 1499		Mean: 0.1510509		Best: 0.2843858		Worst: 0.0791221		Standard Deviation: 0.02803253
Generation: 1599		Mean: 0.1608102		Best: 0.3209743		Worst: 0.07420044		Standard Deviation: 0.03202798
Generation: 1699		Mean: 0.1515972		Best: 0.2717375		Worst: 0.08041362		Standard Deviation: 0.02783147
Generation: 1799		Mean: 0.1676044		Best: 0.3381967		Worst: 0.0747463		Standard Deviation: 0.03278407
Generation: 1899		Mean: 0.1581904		Best: 0.3027763		Worst: 0.07915339		Standard Deviation: 0.03112487
Generation: 1999		Mean: 0.1641679		Best: 0.3017693		Worst: 0.07887267		Standard Deviation: 0.02977234
Generation: 2099		Mean: 0.1629556		Best: 0.3058655		Worst: 0.07807817		Standard Deviation: 0.03091534
Generation: 2199		Mean: 0.1549814		Best: 0.2804163		Worst: 0.08110627		Standard Deviation: 0.02884182
Generation: 2299		Mean: 0.1596415		Best: 0.297472		Worst: 0.07694866		Standard Deviation: 0.02982451
Generation: 2399		Mean: 0.1650116		Best: 0.3074731		Worst: 0.08124606		Standard Deviation: 0.0289512
Generation: 2499		Mean: 0.1576369		Best: 0.2825844		Worst: 0.07893599		Standard Deviation: 0.02900614
Generation: 2599		Mean: 0.1589702		Best: 0.3088782		Worst: 0.07634643		Standard Deviation: 0.03137217
Generation: 2699		Mean: 0.1552417		Best: 0.2819645		Worst: 0.07821921		Standard Deviation: 0.02798976
Generation: 2799		Mean: 0.1535061		Best: 0.2863065		Worst: 0.07188559		Standard Deviation: 0.02969523
Generation: 2899		Mean: 0.1616223		Best: 0.3061511		Worst: 0.07529025		Standard Deviation: 0.02876288
Generation: 2999		Mean: 0.1647392		Best: 0.3072813		Worst: 0.08003474		Standard Deviation: 0.03196253

Mean: 0.1575559		Best: 0.2963317		Standard Deviation: 0.02958274
