Generation: 99		Mean: 0.3348244		Best: 0.3743701		Worst: 0		Standard Deviation: 0.04572593
Generation: 199		Mean: 0.3506689		Best: 0.3748681		Worst: 0.2186914		Standard Deviation: 0.02689796
Generation: 299		Mean: 0.3182838		Best: 0.3738009		Worst: 0		Standard Deviation: 0.06838655
Generation: 399		Mean: 0.3068262		Best: 0.3749821		Worst: 0		Standard Deviation: 0.08499813
Generation: 499		Mean: 0.327686		Best: 0.3747964		Worst: 0		Standard Deviation: 0.05826055
Generation: 599		Mean: 0.3437009		Best: 0.3746853		Worst: 0		Standard Deviation: 0.03432988
Generation: 699		Mean: 0.3400424		Best: 0.3747001		Worst: 0		Standard Deviation: 0.03847961
Generation: 799		Mean: 0.3162228		Best: 0.374896		Worst: 0		Standard Deviation: 0.07386395
Generation: 899		Mean: 0.3392786		Best: 0.3749182		Worst: 0		Standard Deviation: 0.04181631
Generation: 999		Mean: 0.3475523		Best: 0.3745741		Worst: 0		Standard Deviation: 0.03089885
Generation: 1099		Mean: 0.293871		Best: 0.3746726		Worst: 0		Standard Deviation: 0.09900955
Generation: 1199		Mean: 0.3287023		Best: 0.3745149		Worst: 0		Standard Deviation: 0.05593472
Generation: 1299		Mean: 0.3426529		Best: 0.3748192		Worst: 0		Standard Deviation: 0.03588394
Generation: 1399		Mean: 0.3418277		Best: 0.3747737		Worst: 0		Standard Deviation: 0.03839172
Generation: 1499		Mean: 0.3064154		Best: 0.3749242		Worst: 0		Standard Deviation: 0.08616076
Generation: 1599		Mean: 0.3484082		Best: 0.375064		Worst: 0		Standard Deviation: 0.02850524
Generation: 1699		Mean: 0.3418418		Best: 0.3745408		Worst: 0		Standard Deviation: 0.03712092
Generation: 1799		Mean: 0.3473208		Best: 0.3748806		Worst: 0		Standard Deviation: 0.03208431
Generation: 1899		Mean: 0.3493586		Best: 0.3748966		Worst: 0		Standard Deviation: 0.02906072
Generation: 1999		Mean: 0.3360394		Best: 0.3746037		Worst: 0		Standard Deviation: 0.04742259
Generation: 2099		Mean: 0.3220941		Best: 0.3746554		Worst: 0		Standard Deviation: 0.06662774
Generation: 2199		Mean: 0.3486363		Best: 0.3748814		Worst: 0		Standard Deviation: 0.02914466
Generation: 2299		Mean: 0.3374713		Best: 0.374808		Worst: 0		Standard Deviation: 0.04300281
Generation: 2399		Mean: 0.3482592		Best: 0.374738		Worst: 0		Standard Deviation: 0.03028401
Generation: 2499		Mean: 0.306949		Best: 0.3746167		Worst: 0		Standard Deviation: 0.0850279
Generation: 2599		Mean: 0.3422985		Best: 0.3749713		Worst: 0		Standard Deviation: 0.03646658
Generation: 2699		Mean: 0.3427023		Best: 0.3747328		Worst: 0		Standard Deviation: 0.03661309
Generation: 2799		Mean: 0.3441398		Best: 0.3750109		Worst: 0		Standard Deviation: 0.03410155
Generation: 2899		Mean: 0.3464227		Best: 0.374678		Worst: 0		Standard Deviation: 0.03237548
Generation: 2999		Mean: 0.347795		Best: 0.3748444		Worst: 0		Standard Deviation: 0.03028699

Mean: 0.3349431		Best: 0.3747406		Standard Deviation: 0.04723877
