Generation: 99		Mean: 0.004874484		Best: 0.1886626		Worst: 0		Standard Deviation: 0.008077
Generation: 199		Mean: 0.004088071		Best: 0.1718532		Worst: 0		Standard Deviation: 0.006823471
Generation: 299		Mean: 0.003740079		Best: 0.1608537		Worst: 0		Standard Deviation: 0.006440984
Generation: 399		Mean: 0.003520091		Best: 0.1610259		Worst: 0		Standard Deviation: 0.005915107
Generation: 499		Mean: 0.003523119		Best: 0.1626353		Worst: 0		Standard Deviation: 0.005970961
Generation: 599		Mean: 0.003509837		Best: 0.1616765		Worst: 0		Standard Deviation: 0.006080462
Generation: 699		Mean: 0.00362063		Best: 0.1523844		Worst: 0		Standard Deviation: 0.006203944
Generation: 799		Mean: 0.003945926		Best: 0.1669165		Worst: 0		Standard Deviation: 0.006676259
Generation: 899		Mean: 0.003588896		Best: 0.1662304		Worst: 0		Standard Deviation: 0.00600674
Generation: 999		Mean: 0.005093603		Best: 0.1644976		Worst: 0		Standard Deviation: 0.008529028
Generation: 1099		Mean: 0.003989668		Best: 0.1608702		Worst: 0		Standard Deviation: 0.006733061
Generation: 1199		Mean: 0.003335489		Best: 0.178759		Worst: 0		Standard Deviation: 0.005755589
Generation: 1299		Mean: 0.004135051		Best: 0.1702213		Worst: 0		Standard Deviation: 0.007056865
Generation: 1399		Mean: 0.003399713		Best: 0.1727152		Worst: 0		Standard Deviation: 0.005624652
Generation: 1499		Mean: 0.004559662		Best: 0.167945		Worst: 0		Standard Deviation: 0.007077701
Generation: 1599		Mean: 0.00390746		Best: 0.1632987		Worst: 0		Standard Deviation: 0.00659722
Generation: 1699		Mean: 0.00470947		Best: 0.1752189		Worst: 0		Standard Deviation: 0.00784436
Generation: 1799		Mean: 0.003036485		Best: 0.161529		Worst: 0		Standard Deviation: 0.005273266
Generation: 1899		Mean: 0.003428765		Best: 0.1608486		Worst: 0		Standard Deviation: 0.005842475
Generation: 1999		Mean: 0.003793558		Best: 0.166565		Worst: 0		Standard Deviation: 0.006604164
Generation: 2099		Mean: 0.003224296		Best: 0.1604766		Worst: 0		Standard Deviation: 0.005471996
Generation: 2199		Mean: 0.004057901		Best: 0.1754188		Worst: 0		Standard Deviation: 0.006972746
Generation: 2299		Mean: 0.004547745		Best: 0.2044076		Worst: 0		Standard Deviation: 0.007687286
Generation: 2399		Mean: 0.004117623		Best: 0.1679218		Worst: 0		Standard Deviation: 0.006957781
Generation: 2499		Mean: 0.00366139		Best: 0.1713507		Worst: 0		Standard Deviation: 0.006052601
Generation: 2599		Mean: 0.003923126		Best: 0.1652065		Worst: 0		Standard Deviation: 0.006446336
Generation: 2699		Mean: 0.004278825		Best: 0.1870883		Worst: 0		Standard Deviation: 0.00729431
Generation: 2799		Mean: 0.004077565		Best: 0.1677947		Worst: 0		Standard Deviation: 0.006935007
Generation: 2899		Mean: 0.003666628		Best: 0.1883172		Worst: 0		Standard Deviation: 0.006221182
Generation: 2999		Mean: 0.003676916		Best: 0.1625857		Worst: 0		Standard Deviation: 0.006301151

Mean: 0.003901069		Best: 0.1695091		Standard Deviation: 0.006582456
