Generation: 99		Mean: 0.137974		Best: 0.240452		Worst: 0		Standard Deviation: 0.03539598
Generation: 199		Mean: 0.1281771		Best: 0.2188359		Worst: 0		Standard Deviation: 0.04938278
Generation: 299		Mean: 0.1190144		Best: 0.2272549		Worst: 0		Standard Deviation: 0.06197587
Generation: 399		Mean: 0.1367945		Best: 0.2525185		Worst: 0		Standard Deviation: 0.03982477
Generation: 499		Mean: 0.1346844		Best: 0.2262461		Worst: 0		Standard Deviation: 0.04151045
Generation: 599		Mean: 0.146652		Best: 0.2368744		Worst: 0		Standard Deviation: 0.03649237
Generation: 699		Mean: 0.1258829		Best: 0.2388408		Worst: 0		Standard Deviation: 0.04801878
Generation: 799		Mean: 0.1157567		Best: 0.2223967		Worst: 0		Standard Deviation: 0.06019347
Generation: 899		Mean: 0.1291412		Best: 0.2443639		Worst: 0		Standard Deviation: 0.05971004
Generation: 999		Mean: 0.1260668		Best: 0.2327106		Worst: 0		Standard Deviation: 0.04591976
Generation: 1099		Mean: 0.1343589		Best: 0.2295797		Worst: 0		Standard Deviation: 0.0488965
Generation: 1199		Mean: 0.1382658		Best: 0.2381543		Worst: 0		Standard Deviation: 0.05287685
Generation: 1299		Mean: 0.1347598		Best: 0.2364362		Worst: 0		Standard Deviation: 0.04719076
Generation: 1399		Mean: 0.1345489		Best: 0.2327246		Worst: 0		Standard Deviation: 0.04660325
Generation: 1499		Mean: 0.1353054		Best: 0.2280242		Worst: 0		Standard Deviation: 0.04966039
Generation: 1599		Mean: 0.1267882		Best: 0.2354319		Worst: 0		Standard Deviation: 0.05388684
Generation: 1699		Mean: 0.1237287		Best: 0.2301086		Worst: 0		Standard Deviation: 0.05941836
Generation: 1799		Mean: 0.1433561		Best: 0.2374273		Worst: 0		Standard Deviation: 0.04213672
Generation: 1899		Mean: 0.1394464		Best: 0.2307077		Worst: 0		Standard Deviation: 0.03872022
Generation: 1999		Mean: 0.1439095		Best: 0.2492646		Worst: 0		Standard Deviation: 0.03853028
Generation: 2099		Mean: 0.1383369		Best: 0.2432849		Worst: 0		Standard Deviation: 0.04015366
Generation: 2199		Mean: 0.1316635		Best: 0.234166		Worst: 0		Standard Deviation: 0.0539724
Generation: 2299		Mean: 0.1287179		Best: 0.2258477		Worst: 0		Standard Deviation: 0.05164412
Generation: 2399		Mean: 0.1134219		Best: 0.2266804		Worst: 0		Standard Deviation: 0.06805314
Generation: 2499		Mean: 0.1386099		Best: 0.226269		Worst: 0		Standard Deviation: 0.04030064
Generation: 2599		Mean: 0.1156066		Best: 0.2238506		Worst: 0		Standard Deviation: 0.06473973
Generation: 2699		Mean: 0.1303883		Best: 0.2372645		Worst: 0		Standard Deviation: 0.04977451
Generation: 2799		Mean: 0.1348988		Best: 0.2460788		Worst: 0		Standard Deviation: 0.04373159
Generation: 2899		Mean: 0.1211673		Best: 0.2306718		Worst: 0		Standard Deviation: 0.0656428
Generation: 2999		Mean: 0.1398227		Best: 0.2508813		Worst: 0		Standard Deviation: 0.04647984

Mean: 0.1315748		Best: 0.2344449		Standard Deviation: 0.04936123
