Generation: 99		Mean: 0.2828795		Best: 0.3748564		Worst: 0		Standard Deviation: 0.09721289
Generation: 199		Mean: 0.2956537		Best: 0.3748537		Worst: 0		Standard Deviation: 0.08425501
Generation: 299		Mean: 0.2882072		Best: 0.3749446		Worst: 0		Standard Deviation: 0.09348373
Generation: 399		Mean: 0.2776828		Best: 0.3749241		Worst: 0		Standard Deviation: 0.1041635
Generation: 499		Mean: 0.2911542		Best: 0.3748051		Worst: 0		Standard Deviation: 0.08756091
Generation: 599		Mean: 0.2912896		Best: 0.3749153		Worst: 0		Standard Deviation: 0.08589491
Generation: 699		Mean: 0.2795301		Best: 0.3749265		Worst: 0		Standard Deviation: 0.1010778
Generation: 799		Mean: 0.2814591		Best: 0.3750333		Worst: 0		Standard Deviation: 0.1015083
Generation: 899		Mean: 0.2838989		Best: 0.3750078		Worst: 0		Standard Deviation: 0.09172441
Generation: 999		Mean: 0.2838222		Best: 0.3748229		Worst: 0		Standard Deviation: 0.09748366
Generation: 1099		Mean: 0.2887266		Best: 0.374809		Worst: 0		Standard Deviation: 0.08719018
Generation: 1199		Mean: 0.2772426		Best: 0.3750449		Worst: 0		Standard Deviation: 0.1078648
Generation: 1299		Mean: 0.2810831		Best: 0.3749154		Worst: 0		Standard Deviation: 0.09767811
Generation: 1399		Mean: 0.2819411		Best: 0.3749112		Worst: 0		Standard Deviation: 0.09648604
Generation: 1499		Mean: 0.2822059		Best: 0.3749593		Worst: 0		Standard Deviation: 0.09574937
Generation: 1599		Mean: 0.2864037		Best: 0.3749854		Worst: 0		Standard Deviation: 0.09127191
Generation: 1699		Mean: 0.2934169		Best: 0.3749778		Worst: 0		Standard Deviation: 0.08742659
Generation: 1799		Mean: 0.2844452		Best: 0.3748941		Worst: 0		Standard Deviation: 0.09549063
Generation: 1899		Mean: 0.2814632		Best: 0.3748766		Worst: 0		Standard Deviation: 0.09693807
Generation: 1999		Mean: 0.2902773		Best: 0.3748813		Worst: 0		Standard Deviation: 0.09022837
Generation: 2099		Mean: 0.282606		Best: 0.3747219		Worst: 0		Standard Deviation: 0.09762409
Generation: 2199		Mean: 0.2803646		Best: 0.3750232		Worst: 0		Standard Deviation: 0.1003916
Generation: 2299		Mean: 0.2872339		Best: 0.3749847		Worst: 0		Standard Deviation: 0.09181156
Generation: 2399		Mean: 0.286097		Best: 0.3749177		Worst: 0		Standard Deviation: 0.09404115
Generation: 2499		Mean: 0.2928495		Best: 0.3748583		Worst: 0		Standard Deviation: 0.08563025
Generation: 2599		Mean: 0.2812769		Best: 0.3748985		Worst: 0		Standard Deviation: 0.1006157
Generation: 2699		Mean: 0.2862562		Best: 0.3748991		Worst: 0		Standard Deviation: 0.09001067
Generation: 2799		Mean: 0.2766139		Best: 0.3748739		Worst: 0		Standard Deviation: 0.1040599
Generation: 2899		Mean: 0.2794163		Best: 0.3748613		Worst: 0		Standard Deviation: 0.09793578
Generation: 2999		Mean: 0.271764		Best: 0.3750006		Worst: 0		Standard Deviation: 0.109223

Mean: 0.2842421		Best: 0.3749128		Standard Deviation: 0.09540108
