Generation: 99		Mean: 0.3027061		Best: 0.3751326		Worst: 0		Standard Deviation: 0.09378758
Generation: 199		Mean: 0.3274242		Best: 0.3750793		Worst: 0		Standard Deviation: 0.06505276
Generation: 299		Mean: 0.3069746		Best: 0.3751101		Worst: 0		Standard Deviation: 0.08589897
Generation: 399		Mean: 0.2863024		Best: 0.375047		Worst: 0		Standard Deviation: 0.1104246
Generation: 499		Mean: 0.2859353		Best: 0.374997		Worst: 0		Standard Deviation: 0.1177623
Generation: 599		Mean: 0.2937435		Best: 0.3745588		Worst: 0		Standard Deviation: 0.09954856
Generation: 699		Mean: 0.3338672		Best: 0.3732205		Worst: 0		Standard Deviation: 0.05528972
Generation: 799		Mean: 0.3194163		Best: 0.3751615		Worst: 0		Standard Deviation: 0.07301794
Generation: 899		Mean: 0.2490186		Best: 0.3736147		Worst: 0		Standard Deviation: 0.1543477
Generation: 999		Mean: 0.3138755		Best: 0.3750638		Worst: 0		Standard Deviation: 0.08610036
Generation: 1099		Mean: 0.3065633		Best: 0.3749638		Worst: 0		Standard Deviation: 0.09189467
Generation: 1199		Mean: 0.3035154		Best: 0.3751158		Worst: 0		Standard Deviation: 0.09093942
Generation: 1299		Mean: 0.3356005		Best: 0.3751545		Worst: 0		Standard Deviation: 0.05557571
Generation: 1399		Mean: 0.3046065		Best: 0.3750853		Worst: 0		Standard Deviation: 0.08477372
Generation: 1499		Mean: 0.2739232		Best: 0.3750877		Worst: 0		Standard Deviation: 0.1281684
Generation: 1599		Mean: 0.3278107		Best: 0.3750595		Worst: 0		Standard Deviation: 0.06336001
Generation: 1699		Mean: 0.3054813		Best: 0.3750294		Worst: 0		Standard Deviation: 0.09359833
Generation: 1799		Mean: 0.3223715		Best: 0.3751612		Worst: 0		Standard Deviation: 0.07218122
Generation: 1899		Mean: 0.3032295		Best: 0.3738163		Worst: 0		Standard Deviation: 0.08646663
Generation: 1999		Mean: 0.2957583		Best: 0.3739941		Worst: 0		Standard Deviation: 0.1103321
Generation: 2099		Mean: 0.3283833		Best: 0.3751554		Worst: 0		Standard Deviation: 0.06727771
Generation: 2199		Mean: 0.3151717		Best: 0.3748387		Worst: 0		Standard Deviation: 0.08059578
Generation: 2299		Mean: 0.3219938		Best: 0.3745914		Worst: 0		Standard Deviation: 0.07378978
Generation: 2399		Mean: 0.3108292		Best: 0.3744747		Worst: 0		Standard Deviation: 0.08444438
Generation: 2499		Mean: 0.3381889		Best: 0.3751529		Worst: 0		Standard Deviation: 0.04982514
Generation: 2599		Mean: 0.3400622		Best: 0.3748857		Worst: 0		Standard Deviation: 0.04941729
Generation: 2699		Mean: 0.2548052		Best: 0.3746727		Worst: 0		Standard Deviation: 0.1350171
Generation: 2799		Mean: 0.3267234		Best: 0.3751799		Worst: 0		Standard Deviation: 0.06215128
Generation: 2899		Mean: 0.3120897		Best: 0.3748785		Worst: 0		Standard Deviation: 0.0836884
Generation: 2999		Mean: 0.3028663		Best: 0.3751476		Worst: 0		Standard Deviation: 0.09186499

Mean: 0.3083079		Best: 0.3748144		Standard Deviation: 0.08655309
