Generation: 99		Mean: 0.163572		Best: 0.2844037		Worst: 0		Standard Deviation: 0.05842096
Generation: 199		Mean: 0.1743407		Best: 0.3132271		Worst: 0		Standard Deviation: 0.06192597
Generation: 299		Mean: 0.1647577		Best: 0.294853		Worst: 0		Standard Deviation: 0.06105448
Generation: 399		Mean: 0.1714953		Best: 0.2943828		Worst: 0		Standard Deviation: 0.05346225
Generation: 499		Mean: 0.1670273		Best: 0.3089699		Worst: 0		Standard Deviation: 0.06157217
Generation: 599		Mean: 0.1647516		Best: 0.3153854		Worst: 0		Standard Deviation: 0.06804903
Generation: 699		Mean: 0.1672014		Best: 0.315157		Worst: 0		Standard Deviation: 0.06238364
Generation: 799		Mean: 0.157822		Best: 0.2823404		Worst: 0		Standard Deviation: 0.05773316
Generation: 899		Mean: 0.1765585		Best: 0.3288389		Worst: 0		Standard Deviation: 0.06089735
Generation: 999		Mean: 0.1643151		Best: 0.3092207		Worst: 0		Standard Deviation: 0.06801177
Generation: 1099		Mean: 0.1706613		Best: 0.3279512		Worst: 0		Standard Deviation: 0.06793563
Generation: 1199		Mean: 0.1627869		Best: 0.3132836		Worst: 0		Standard Deviation: 0.06893653
Generation: 1299		Mean: 0.1783294		Best: 0.3046064		Worst: 0		Standard Deviation: 0.04878198
Generation: 1399		Mean: 0.1781217		Best: 0.293316		Worst: 0		Standard Deviation: 0.04701406
Generation: 1499		Mean: 0.1715258		Best: 0.2988133		Worst: 0		Standard Deviation: 0.05995372
Generation: 1599		Mean: 0.1701437		Best: 0.2962564		Worst: 0		Standard Deviation: 0.05078903
Generation: 1699		Mean: 0.1689294		Best: 0.2984587		Worst: 0		Standard Deviation: 0.05263144
Generation: 1799		Mean: 0.1591668		Best: 0.3047907		Worst: 0		Standard Deviation: 0.06690089
Generation: 1899		Mean: 0.182255		Best: 0.326418		Worst: 0		Standard Deviation: 0.05483137
Generation: 1999		Mean: 0.1654543		Best: 0.3172912		Worst: 0		Standard Deviation: 0.0676147
Generation: 2099		Mean: 0.1800439		Best: 0.3139056		Worst: 0		Standard Deviation: 0.04918845
Generation: 2199		Mean: 0.1769313		Best: 0.3192891		Worst: 0		Standard Deviation: 0.05501977
Generation: 2299		Mean: 0.1693944		Best: 0.3016543		Worst: 0		Standard Deviation: 0.05610302
Generation: 2399		Mean: 0.1726646		Best: 0.3075082		Worst: 0		Standard Deviation: 0.05763308
Generation: 2499		Mean: 0.1657056		Best: 0.3038763		Worst: 0		Standard Deviation: 0.06044545
Generation: 2599		Mean: 0.1784318		Best: 0.2958114		Worst: 0		Standard Deviation: 0.05069188
Generation: 2699		Mean: 0.1602076		Best: 0.2989942		Worst: 0		Standard Deviation: 0.06680565
Generation: 2799		Mean: 0.1760952		Best: 0.3145708		Worst: 0		Standard Deviation: 0.05650494
Generation: 2899		Mean: 0.1841412		Best: 0.3167894		Worst: 0		Standard Deviation: 0.04864298
Generation: 2999		Mean: 0.1800799		Best: 0.3273778		Worst: 0		Standard Deviation: 0.05592176

Mean: 0.1707637		Best: 0.3075914		Standard Deviation: 0.05852856
