Generation: 99		Mean: 0.2421506		Best: 0.3557266		Worst: 0		Standard Deviation: 0.09947365
Generation: 199		Mean: 0.2489427		Best: 0.3557229		Worst: 0		Standard Deviation: 0.07250715
Generation: 299		Mean: 0.2561091		Best: 0.3639979		Worst: 0		Standard Deviation: 0.06683187
Generation: 399		Mean: 0.2490196		Best: 0.3617039		Worst: 0		Standard Deviation: 0.07755725
Generation: 499		Mean: 0.2756829		Best: 0.3668424		Worst: 0		Standard Deviation: 0.05257763
Generation: 599		Mean: 0.2530828		Best: 0.3560576		Worst: 0		Standard Deviation: 0.07429218
Generation: 699		Mean: 0.2500315		Best: 0.3619612		Worst: 0		Standard Deviation: 0.07383043
Generation: 799		Mean: 0.2594392		Best: 0.3583109		Worst: 0		Standard Deviation: 0.06137165
Generation: 899		Mean: 0.2415462		Best: 0.357981		Worst: 0		Standard Deviation: 0.08872566
Generation: 999		Mean: 0.2443457		Best: 0.3623241		Worst: 0		Standard Deviation: 0.0942753
Generation: 1099		Mean: 0.2376594		Best: 0.3636527		Worst: 0		Standard Deviation: 0.07807957
Generation: 1199		Mean: 0.2438641		Best: 0.358427		Worst: 0		Standard Deviation: 0.08409575
Generation: 1299		Mean: 0.2069547		Best: 0.3631823		Worst: 0		Standard Deviation: 0.1117556
Generation: 1399		Mean: 0.2353145		Best: 0.3644554		Worst: 0		Standard Deviation: 0.08715218
Generation: 1499		Mean: 0.2570609		Best: 0.3590801		Worst: 0		Standard Deviation: 0.0708184
Generation: 1599		Mean: 0.2408229		Best: 0.3579416		Worst: 0		Standard Deviation: 0.08317201
Generation: 1699		Mean: 0.2734924		Best: 0.3663807		Worst: 0		Standard Deviation: 0.05009559
Generation: 1799		Mean: 0.2237507		Best: 0.3551335		Worst: 0		Standard Deviation: 0.1079354
Generation: 1899		Mean: 0.2634174		Best: 0.356056		Worst: 0		Standard Deviation: 0.06302617
Generation: 1999		Mean: 0.2741019		Best: 0.3626468		Worst: 0		Standard Deviation: 0.05237499
Generation: 2099		Mean: 0.2486798		Best: 0.3558963		Worst: 0		Standard Deviation: 0.080727
Generation: 2199		Mean: 0.2541162		Best: 0.3620217		Worst: 0		Standard Deviation: 0.06466057
Generation: 2299		Mean: 0.2753966		Best: 0.3588438		Worst: 0		Standard Deviation: 0.05828119
Generation: 2399		Mean: 0.2583383		Best: 0.3557382		Worst: 0		Standard Deviation: 0.05618366
Generation: 2499		Mean: 0.2503488		Best: 0.3547871		Worst: 0		Standard Deviation: 0.07738428
Generation: 2599		Mean: 0.2402427		Best: 0.3594734		Worst: 0		Standard Deviation: 0.08310999
Generation: 2699		Mean: 0.2732152		Best: 0.3508099		Worst: 0		Standard Deviation: 0.05974805
Generation: 2799		Mean: 0.2374986		Best: 0.3548011		Worst: 0		Standard Deviation: 0.08715547
Generation: 2899		Mean: 0.2421068		Best: 0.3578808		Worst: 0		Standard Deviation: 0.09379277
Generation: 2999		Mean: 0.2296914		Best: 0.359422		Worst: 0		Standard Deviation: 0.09344357

Mean: 0.2495474		Best: 0.3592419		Standard Deviation: 0.0768145
