Generation: 99		Mean: 0.03314383		Best: 0.2778106		Worst: 0		Standard Deviation: 0.04464745
Generation: 199		Mean: 0.02988849		Best: 0.247534		Worst: 0		Standard Deviation: 0.04137702
Generation: 299		Mean: 0.03176762		Best: 0.267314		Worst: 0		Standard Deviation: 0.04324313
Generation: 399		Mean: 0.03167107		Best: 0.2581923		Worst: 0		Standard Deviation: 0.04294145
Generation: 499		Mean: 0.03307863		Best: 0.2746091		Worst: 0		Standard Deviation: 0.04449686
Generation: 599		Mean: 0.03402308		Best: 0.3105323		Worst: 0		Standard Deviation: 0.04525751
Generation: 699		Mean: 0.03417938		Best: 0.2684702		Worst: 0		Standard Deviation: 0.04563786
Generation: 799		Mean: 0.0332778		Best: 0.2759451		Worst: 0		Standard Deviation: 0.04431945
Generation: 899		Mean: 0.03718822		Best: 0.3058625		Worst: 0		Standard Deviation: 0.04850497
Generation: 999		Mean: 0.03393701		Best: 0.2532252		Worst: 0		Standard Deviation: 0.04555465
Generation: 1099		Mean: 0.03329693		Best: 0.2720286		Worst: 0		Standard Deviation: 0.04448222
Generation: 1199		Mean: 0.03061684		Best: 0.2490311		Worst: 0		Standard Deviation: 0.0422015
Generation: 1299		Mean: 0.03617671		Best: 0.2547774		Worst: 0		Standard Deviation: 0.0469507
Generation: 1399		Mean: 0.03545709		Best: 0.2784275		Worst: 0		Standard Deviation: 0.04642522
Generation: 1499		Mean: 0.03809148		Best: 0.2906757		Worst: 0		Standard Deviation: 0.04990281
Generation: 1599		Mean: 0.03370582		Best: 0.23367		Worst: 0		Standard Deviation: 0.04414909
Generation: 1699		Mean: 0.03068938		Best: 0.2873269		Worst: 0		Standard Deviation: 0.04261101
Generation: 1799		Mean: 0.03558586		Best: 0.280062		Worst: 0		Standard Deviation: 0.04658353
Generation: 1899		Mean: 0.03369581		Best: 0.2309585		Worst: 0		Standard Deviation: 0.04403139
Generation: 1999		Mean: 0.03330047		Best: 0.2810851		Worst: 0		Standard Deviation: 0.0452539
Generation: 2099		Mean: 0.0364235		Best: 0.264762		Worst: 0		Standard Deviation: 0.04712776
Generation: 2199		Mean: 0.03616133		Best: 0.2764831		Worst: 0		Standard Deviation: 0.0472179
Generation: 2299		Mean: 0.03548027		Best: 0.2545041		Worst: 0		Standard Deviation: 0.04606522
Generation: 2399		Mean: 0.03808558		Best: 0.3047434		Worst: 0		Standard Deviation: 0.04904544
Generation: 2499		Mean: 0.0323239		Best: 0.2523319		Worst: 0		Standard Deviation: 0.0440453
Generation: 2599		Mean: 0.03320719		Best: 0.28369		Worst: 0		Standard Deviation: 0.04454037
Generation: 2699		Mean: 0.03279466		Best: 0.277796		Worst: 0		Standard Deviation: 0.04495914
Generation: 2799		Mean: 0.03894782		Best: 0.3155558		Worst: 0		Standard Deviation: 0.05022216
Generation: 2899		Mean: 0.03430222		Best: 0.2786706		Worst: 0		Standard Deviation: 0.04578643
Generation: 2999		Mean: 0.03325363		Best: 0.2651115		Worst: 0		Standard Deviation: 0.04452308

Mean: 0.03412505		Best: 0.2723728		Standard Deviation: 0.04540349
