Generation: 99		Mean: 0.0104441		Best: 0.3006766		Worst: 0		Standard Deviation: 0.01895692
Generation: 199		Mean: 0.02004491		Best: 0.3118504		Worst: 0		Standard Deviation: 0.03557906
Generation: 299		Mean: 0.01487038		Best: 0.3428635		Worst: 0		Standard Deviation: 0.02621089
Generation: 399		Mean: 0.01182531		Best: 0.2878671		Worst: 0		Standard Deviation: 0.02144999
Generation: 499		Mean: 0.02908325		Best: 0.3398453		Worst: 0		Standard Deviation: 0.04794351
Generation: 599		Mean: 0.02710369		Best: 0.3407339		Worst: 0		Standard Deviation: 0.04475375
Generation: 699		Mean: 0.02029172		Best: 0.3161525		Worst: 0		Standard Deviation: 0.03411667
Generation: 799		Mean: 0.01497048		Best: 0.2873721		Worst: 0		Standard Deviation: 0.02727691
Generation: 899		Mean: 0.006022566		Best: 0.2909824		Worst: 0		Standard Deviation: 0.01143063
Generation: 999		Mean: 0.02976277		Best: 0.3503857		Worst: 0		Standard Deviation: 0.04918586
Generation: 1099		Mean: 0.03609151		Best: 0.3335344		Worst: 0		Standard Deviation: 0.05569284
Generation: 1199		Mean: 0.007901236		Best: 0.2772216		Worst: 0		Standard Deviation: 0.01419457
Generation: 1299		Mean: 0.01603252		Best: 0.3224788		Worst: 0		Standard Deviation: 0.02847971
Generation: 1399		Mean: 0.02138156		Best: 0.3368981		Worst: 0		Standard Deviation: 0.03523069
Generation: 1499		Mean: 0.03063658		Best: 0.3299492		Worst: 0		Standard Deviation: 0.05270793
Generation: 1599		Mean: 0.006918297		Best: 0.2905943		Worst: 0		Standard Deviation: 0.01280444
Generation: 1699		Mean: 0.01588858		Best: 0.3091682		Worst: 0		Standard Deviation: 0.02778943
Generation: 1799		Mean: 0.01281597		Best: 0.2947297		Worst: 0		Standard Deviation: 0.02243924
Generation: 1899		Mean: 0.01123294		Best: 0.362318		Worst: 0		Standard Deviation: 0.02003269
Generation: 1999		Mean: 0.03676516		Best: 0.3417423		Worst: 0		Standard Deviation: 0.05632557
Generation: 2099		Mean: 0.02273772		Best: 0.3135249		Worst: 0		Standard Deviation: 0.03902205
Generation: 2199		Mean: 0.01875042		Best: 0.362849		Worst: 0		Standard Deviation: 0.03397358
Generation: 2299		Mean: 0.01627708		Best: 0.3026753		Worst: 0		Standard Deviation: 0.02896816
Generation: 2399		Mean: 0.0153166		Best: 0.3108703		Worst: 0		Standard Deviation: 0.02672027
Generation: 2499		Mean: 0.03292598		Best: 0.306004		Worst: 0		Standard Deviation: 0.05261043
Generation: 2599		Mean: 0.01482118		Best: 0.2966881		Worst: 0		Standard Deviation: 0.02607778
Generation: 2699		Mean: 0.011193		Best: 0.2970738		Worst: 0		Standard Deviation: 0.02048174
Generation: 2799		Mean: 0.02712579		Best: 0.3180209		Worst: 0		Standard Deviation: 0.04431318
Generation: 2899		Mean: 0.0101969		Best: 0.3471816		Worst: 0		Standard Deviation: 0.01855008
Generation: 2999		Mean: 0.01563591		Best: 0.3142948		Worst: 0		Standard Deviation: 0.02838608

Mean: 0.01883547		Best: 0.3178849		Standard Deviation: 0.03205682
