Generation: 99		Mean: 0.3217207		Best: 0.3476839		Worst: 0		Standard Deviation: 0.0409522
Generation: 199		Mean: 0.3095841		Best: 0.3367678		Worst: 0		Standard Deviation: 0.04381683
Generation: 299		Mean: 0.3258318		Best: 0.3392054		Worst: 0		Standard Deviation: 0.01986925
Generation: 399		Mean: 0.3039997		Best: 0.3273358		Worst: 0		Standard Deviation: 0.03664252
Generation: 499		Mean: 0.2849591		Best: 0.3067169		Worst: 0		Standard Deviation: 0.03251192
Generation: 599		Mean: 0.3123517		Best: 0.3319324		Worst: 0		Standard Deviation: 0.03038112
Generation: 699		Mean: 0.3290369		Best: 0.3448654		Worst: 0		Standard Deviation: 0.02286265
Generation: 799		Mean: 0.2960248		Best: 0.3249111		Worst: 0		Standard Deviation: 0.04460675
Generation: 899		Mean: 0.3272625		Best: 0.343161		Worst: 0		Standard Deviation: 0.02375131
Generation: 999		Mean: 0.319057		Best: 0.3309553		Worst: 0		Standard Deviation: 0.0173581
Generation: 1099		Mean: 0.3204689		Best: 0.3320986		Worst: 0		Standard Deviation: 0.01746863
Generation: 1199		Mean: 0.3049884		Best: 0.3169385		Worst: 0		Standard Deviation: 0.01567543
Generation: 1299		Mean: 0.3071105		Best: 0.3321752		Worst: 0		Standard Deviation: 0.03913585
Generation: 1399		Mean: 0.3072666		Best: 0.3345901		Worst: 0		Standard Deviation: 0.04182062
Generation: 1499		Mean: 0.3000509		Best: 0.3187375		Worst: 0		Standard Deviation: 0.02928146
Generation: 1599		Mean: 0.2893003		Best: 0.3373784		Worst: 0		Standard Deviation: 0.07624032
Generation: 1699		Mean: 0.3157326		Best: 0.3348576		Worst: 0		Standard Deviation: 0.03038312
Generation: 1799		Mean: 0.3033285		Best: 0.321365		Worst: 0		Standard Deviation: 0.02806983
Generation: 1899		Mean: 0.3087827		Best: 0.3382383		Worst: 0		Standard Deviation: 0.04602947
Generation: 1999		Mean: 0.3258125		Best: 0.3380202		Worst: 0		Standard Deviation: 0.01861895
Generation: 2099		Mean: 0.3025706		Best: 0.3268811		Worst: 0		Standard Deviation: 0.03780579
Generation: 2199		Mean: 0.3405432		Best: 0.3549615		Worst: 0		Standard Deviation: 0.02319056
Generation: 2299		Mean: 0.3148111		Best: 0.3389485		Worst: 0		Standard Deviation: 0.03831114
Generation: 2399		Mean: 0.3298919		Best: 0.3449357		Worst: 0		Standard Deviation: 0.02408826
Generation: 2499		Mean: 0.3099225		Best: 0.3349477		Worst: 0		Standard Deviation: 0.03969017
Generation: 2599		Mean: 0.3007915		Best: 0.3385495		Worst: 0		Standard Deviation: 0.05983168
Generation: 2699		Mean: 0.3302346		Best: 0.3437902		Worst: 0		Standard Deviation: 0.02055648
Generation: 2799		Mean: 0.3121594		Best: 0.3296734		Worst: 0		Standard Deviation: 0.02691016
Generation: 2899		Mean: 0.3211354		Best: 0.3384883		Worst: 0		Standard Deviation: 0.02727835
Generation: 2999		Mean: 0.3147063		Best: 0.3344181		Worst: 0		Standard Deviation: 0.03229254

Mean: 0.3129812		Best: 0.3341176		Standard Deviation: 0.03284772
