Generation: 99		Mean: 0.1945885		Best: 0.3280133		Worst: 0		Standard Deviation: 0.0716583
Generation: 199		Mean: 0.2031303		Best: 0.3229822		Worst: 0		Standard Deviation: 0.07001894
Generation: 299		Mean: 0.2027328		Best: 0.3263572		Worst: 0		Standard Deviation: 0.06441272
Generation: 399		Mean: 0.2142422		Best: 0.3376549		Worst: 0		Standard Deviation: 0.05497427
Generation: 499		Mean: 0.2037176		Best: 0.3297537		Worst: 0		Standard Deviation: 0.0632679
Generation: 599		Mean: 0.2113433		Best: 0.3250212		Worst: 0		Standard Deviation: 0.05361409
Generation: 699		Mean: 0.1826468		Best: 0.323111		Worst: 0		Standard Deviation: 0.083806
Generation: 799		Mean: 0.1857197		Best: 0.3296197		Worst: 0		Standard Deviation: 0.0743185
Generation: 899		Mean: 0.1934603		Best: 0.3069996		Worst: 0		Standard Deviation: 0.0655442
Generation: 999		Mean: 0.2089873		Best: 0.3202932		Worst: 0		Standard Deviation: 0.0541213
Generation: 1099		Mean: 0.2076376		Best: 0.3296482		Worst: 0		Standard Deviation: 0.05669561
Generation: 1199		Mean: 0.2053679		Best: 0.3246925		Worst: 0		Standard Deviation: 0.06778704
Generation: 1299		Mean: 0.1984936		Best: 0.3112431		Worst: 0		Standard Deviation: 0.06212848
Generation: 1399		Mean: 0.2019336		Best: 0.3200965		Worst: 0		Standard Deviation: 0.06239014
Generation: 1499		Mean: 0.2037278		Best: 0.3265967		Worst: 0		Standard Deviation: 0.06615606
Generation: 1599		Mean: 0.1853328		Best: 0.3240687		Worst: 0		Standard Deviation: 0.08219782
Generation: 1699		Mean: 0.1949925		Best: 0.309911		Worst: 0		Standard Deviation: 0.06816878
Generation: 1799		Mean: 0.1990608		Best: 0.3210692		Worst: 0		Standard Deviation: 0.06796169
Generation: 1899		Mean: 0.2106		Best: 0.3327121		Worst: 0		Standard Deviation: 0.05883249
Generation: 1999		Mean: 0.2097162		Best: 0.3196298		Worst: 0		Standard Deviation: 0.04932619
Generation: 2099		Mean: 0.2113632		Best: 0.3315149		Worst: 0		Standard Deviation: 0.056956
Generation: 2199		Mean: 0.2014555		Best: 0.3186099		Worst: 0		Standard Deviation: 0.06444927
Generation: 2299		Mean: 0.2164909		Best: 0.3194996		Worst: 0		Standard Deviation: 0.05059196
Generation: 2399		Mean: 0.1930326		Best: 0.3314028		Worst: 0		Standard Deviation: 0.07215308
Generation: 2499		Mean: 0.1905867		Best: 0.3273252		Worst: 0		Standard Deviation: 0.07309566
Generation: 2599		Mean: 0.2103049		Best: 0.3267952		Worst: 0		Standard Deviation: 0.05653949
Generation: 2699		Mean: 0.2153131		Best: 0.3313754		Worst: 0		Standard Deviation: 0.05569658
Generation: 2799		Mean: 0.2052803		Best: 0.3189132		Worst: 0		Standard Deviation: 0.06161213
Generation: 2899		Mean: 0.180757		Best: 0.3169217		Worst: 0		Standard Deviation: 0.07821577
Generation: 2999		Mean: 0.1969218		Best: 0.3363502		Worst: 0		Standard Deviation: 0.07302675

Mean: 0.2012979		Best: 0.3242728		Standard Deviation: 0.06465724
