Generation: 99		Mean: 0.2768305		Best: 0.3722258		Worst: 0		Standard Deviation: 0.07555135
Generation: 199		Mean: 0.2913211		Best: 0.3738365		Worst: 0		Standard Deviation: 0.06073969
Generation: 299		Mean: 0.2680941		Best: 0.3735712		Worst: 0		Standard Deviation: 0.08507229
Generation: 399		Mean: 0.2847356		Best: 0.3725578		Worst: 0		Standard Deviation: 0.0680351
Generation: 499		Mean: 0.282738		Best: 0.3723106		Worst: 0		Standard Deviation: 0.07006434
Generation: 599		Mean: 0.2942195		Best: 0.373036		Worst: 0		Standard Deviation: 0.0554134
Generation: 699		Mean: 0.2991566		Best: 0.3728336		Worst: 0		Standard Deviation: 0.05377269
Generation: 799		Mean: 0.2923984		Best: 0.3721958		Worst: 0		Standard Deviation: 0.06101777
Generation: 899		Mean: 0.2797231		Best: 0.3730676		Worst: 0		Standard Deviation: 0.0758545
Generation: 999		Mean: 0.2804022		Best: 0.373028		Worst: 0		Standard Deviation: 0.07261764
Generation: 1099		Mean: 0.2977469		Best: 0.3736799		Worst: 0		Standard Deviation: 0.05475499
Generation: 1199		Mean: 0.2783665		Best: 0.3735478		Worst: 0		Standard Deviation: 0.07363168
Generation: 1299		Mean: 0.2727889		Best: 0.3726965		Worst: 0		Standard Deviation: 0.08142134
Generation: 1399		Mean: 0.2852682		Best: 0.372967		Worst: 0		Standard Deviation: 0.06659525
Generation: 1499		Mean: 0.287212		Best: 0.3733291		Worst: 0		Standard Deviation: 0.06903503
Generation: 1599		Mean: 0.3010546		Best: 0.3726799		Worst: 0		Standard Deviation: 0.04929374
Generation: 1699		Mean: 0.2920389		Best: 0.373698		Worst: 0		Standard Deviation: 0.05634106
Generation: 1799		Mean: 0.2632137		Best: 0.3729835		Worst: 0		Standard Deviation: 0.09034903
Generation: 1899		Mean: 0.2916519		Best: 0.3725943		Worst: 0		Standard Deviation: 0.06073172
Generation: 1999		Mean: 0.2963796		Best: 0.3732522		Worst: 0		Standard Deviation: 0.05700787
Generation: 2099		Mean: 0.2770821		Best: 0.3745166		Worst: 0		Standard Deviation: 0.07762247
Generation: 2199		Mean: 0.2759656		Best: 0.3720725		Worst: 0		Standard Deviation: 0.08302372
Generation: 2299		Mean: 0.2669679		Best: 0.3732636		Worst: 0		Standard Deviation: 0.09061602
Generation: 2399		Mean: 0.2850334		Best: 0.3720091		Worst: 0		Standard Deviation: 0.06998276
Generation: 2499		Mean: 0.2825817		Best: 0.3733456		Worst: 0		Standard Deviation: 0.07174426
Generation: 2599		Mean: 0.2694284		Best: 0.3732052		Worst: 0		Standard Deviation: 0.08691714
Generation: 2699		Mean: 0.2847623		Best: 0.37124		Worst: 0		Standard Deviation: 0.07068945
Generation: 2799		Mean: 0.2706366		Best: 0.3716399		Worst: 0		Standard Deviation: 0.08548611
Generation: 2899		Mean: 0.2832684		Best: 0.3731939		Worst: 0		Standard Deviation: 0.06802711
Generation: 2999		Mean: 0.2739742		Best: 0.3719379		Worst: 0		Standard Deviation: 0.08244806

Mean: 0.2828347		Best: 0.3728839		Standard Deviation: 0.07079525
