Generation: 99		Mean: 0.3149699		Best: 0.3750257		Worst: 0		Standard Deviation: 0.08493029
Generation: 199		Mean: 0.3158844		Best: 0.3751227		Worst: 0		Standard Deviation: 0.07742183
Generation: 299		Mean: 0.3020536		Best: 0.3751478		Worst: 0		Standard Deviation: 0.1000241
Generation: 399		Mean: 0.2928777		Best: 0.3745959		Worst: 0		Standard Deviation: 0.1068118
Generation: 499		Mean: 0.3142994		Best: 0.3751299		Worst: 0		Standard Deviation: 0.07351533
Generation: 599		Mean: 0.3333542		Best: 0.3751113		Worst: 0		Standard Deviation: 0.05971721
Generation: 699		Mean: 0.3060156		Best: 0.3751021		Worst: 0		Standard Deviation: 0.08979461
Generation: 799		Mean: 0.297504		Best: 0.3749858		Worst: 0		Standard Deviation: 0.09813053
Generation: 899		Mean: 0.3322044		Best: 0.3750661		Worst: 0		Standard Deviation: 0.06434731
Generation: 999		Mean: 0.3349718		Best: 0.3751402		Worst: 0		Standard Deviation: 0.05469864
Generation: 1099		Mean: 0.327989		Best: 0.3749995		Worst: 0		Standard Deviation: 0.06231368
Generation: 1199		Mean: 0.3324123		Best: 0.3751559		Worst: 0.003927958		Standard Deviation: 0.05656823
Generation: 1299		Mean: 0.3065724		Best: 0.3750252		Worst: 0		Standard Deviation: 0.08678183
Generation: 1399		Mean: 0.3158333		Best: 0.3751348		Worst: 0		Standard Deviation: 0.08328612
Generation: 1499		Mean: 0.3112698		Best: 0.3751813		Worst: 0		Standard Deviation: 0.08637119
Generation: 1599		Mean: 0.3206237		Best: 0.37514		Worst: 0		Standard Deviation: 0.07486428
Generation: 1699		Mean: 0.329103		Best: 0.3751129		Worst: 0		Standard Deviation: 0.0581449
Generation: 1799		Mean: 0.3327377		Best: 0.3737618		Worst: 0		Standard Deviation: 0.05079848
Generation: 1899		Mean: 0.3348699		Best: 0.3750547		Worst: 0		Standard Deviation: 0.05583767
Generation: 1999		Mean: 0.281391		Best: 0.3751691		Worst: 0		Standard Deviation: 0.1176779
Generation: 2099		Mean: 0.2677724		Best: 0.3751222		Worst: 0		Standard Deviation: 0.1401299
Generation: 2199		Mean: 0.3091201		Best: 0.3750736		Worst: 0		Standard Deviation: 0.08881977
Generation: 2299		Mean: 0.3339554		Best: 0.3751545		Worst: 0		Standard Deviation: 0.06124558
Generation: 2399		Mean: 0.2760385		Best: 0.375129		Worst: 0		Standard Deviation: 0.133551
Generation: 2499		Mean: 0.3129062		Best: 0.3749703		Worst: 0		Standard Deviation: 0.07847001
Generation: 2599		Mean: 0.2955107		Best: 0.3746785		Worst: 0		Standard Deviation: 0.09876465
Generation: 2699		Mean: 0.281058		Best: 0.3661185		Worst: 0		Standard Deviation: 0.1075387
Generation: 2799		Mean: 0.3403202		Best: 0.3750342		Worst: 0		Standard Deviation: 0.05278857
Generation: 2899		Mean: 0.3029212		Best: 0.3706406		Worst: 0		Standard Deviation: 0.09034529
Generation: 2999		Mean: 0.2698611		Best: 0.3751209		Worst: 0		Standard Deviation: 0.1301149

Mean: 0.3108801		Best: 0.3745735		Standard Deviation: 0.08412682
