Generation: 99		Mean: 0.1426859		Best: 0.3482806		Worst: 0		Standard Deviation: 0.1093103
Generation: 199		Mean: 0.1389361		Best: 0.3427171		Worst: 0		Standard Deviation: 0.1117526
Generation: 299		Mean: 0.1364481		Best: 0.3454147		Worst: 0		Standard Deviation: 0.113799
Generation: 399		Mean: 0.1460426		Best: 0.3450219		Worst: 0		Standard Deviation: 0.1074427
Generation: 499		Mean: 0.1502295		Best: 0.3484554		Worst: 0		Standard Deviation: 0.1041722
Generation: 599		Mean: 0.1363936		Best: 0.3545967		Worst: 0		Standard Deviation: 0.1105073
Generation: 699		Mean: 0.1503953		Best: 0.3529006		Worst: 0		Standard Deviation: 0.1042283
Generation: 799		Mean: 0.1384159		Best: 0.3394229		Worst: 0		Standard Deviation: 0.1091903
Generation: 899		Mean: 0.1361234		Best: 0.3395328		Worst: 0		Standard Deviation: 0.1108086
Generation: 999		Mean: 0.1354031		Best: 0.3400151		Worst: 0		Standard Deviation: 0.1124099
Generation: 1099		Mean: 0.1434457		Best: 0.3479187		Worst: 0		Standard Deviation: 0.1093071
Generation: 1199		Mean: 0.1381124		Best: 0.343097		Worst: 0		Standard Deviation: 0.110391
Generation: 1299		Mean: 0.1367403		Best: 0.3377277		Worst: 0		Standard Deviation: 0.1108389
Generation: 1399		Mean: 0.1406279		Best: 0.3401898		Worst: 0		Standard Deviation: 0.110299
Generation: 1499		Mean: 0.1470139		Best: 0.3406793		Worst: 0		Standard Deviation: 0.1082022
Generation: 1599		Mean: 0.143764		Best: 0.3381778		Worst: 0		Standard Deviation: 0.1098571
Generation: 1699		Mean: 0.1347317		Best: 0.342454		Worst: 0		Standard Deviation: 0.1098434
Generation: 1799		Mean: 0.1409237		Best: 0.3465348		Worst: 0		Standard Deviation: 0.1108638
Generation: 1899		Mean: 0.1425131		Best: 0.333005		Worst: 0		Standard Deviation: 0.110006
Generation: 1999		Mean: 0.1362582		Best: 0.3487953		Worst: 0		Standard Deviation: 0.1120237
Generation: 2099		Mean: 0.1402221		Best: 0.3529794		Worst: 0		Standard Deviation: 0.1091257
Generation: 2199		Mean: 0.1436077		Best: 0.3451632		Worst: 0		Standard Deviation: 0.108717
Generation: 2299		Mean: 0.1401061		Best: 0.3423145		Worst: 0		Standard Deviation: 0.1090882
Generation: 2399		Mean: 0.1404341		Best: 0.3473249		Worst: 0		Standard Deviation: 0.111224
Generation: 2499		Mean: 0.1415352		Best: 0.338936		Worst: 0		Standard Deviation: 0.1082982
Generation: 2599		Mean: 0.1402		Best: 0.3406772		Worst: 0		Standard Deviation: 0.1111237
Generation: 2699		Mean: 0.1364847		Best: 0.3556726		Worst: 0		Standard Deviation: 0.1108311
Generation: 2799		Mean: 0.1491631		Best: 0.3386263		Worst: 0		Standard Deviation: 0.1060533
Generation: 2899		Mean: 0.1370868		Best: 0.3452369		Worst: 0		Standard Deviation: 0.1108818
Generation: 2999		Mean: 0.1358933		Best: 0.338366		Worst: 0		Standard Deviation: 0.1123006

Mean: 0.1406646		Best: 0.3440078		Standard Deviation: 0.1097632
