Generation: 99		Mean: 0.3231291		Best: 0.3751956		Worst: 0		Standard Deviation: 0.0711631
Generation: 199		Mean: 0.3189895		Best: 0.3751898		Worst: 0		Standard Deviation: 0.0735173
Generation: 299		Mean: 0.2860776		Best: 0.3751624		Worst: 0		Standard Deviation: 0.1130409
Generation: 399		Mean: 0.3154567		Best: 0.3751738		Worst: 0		Standard Deviation: 0.07948786
Generation: 499		Mean: 0.3169742		Best: 0.3751828		Worst: 0		Standard Deviation: 0.0749833
Generation: 599		Mean: 0.3140286		Best: 0.3751387		Worst: 0		Standard Deviation: 0.07844408
Generation: 699		Mean: 0.2902234		Best: 0.3751546		Worst: 0		Standard Deviation: 0.1052528
Generation: 799		Mean: 0.3230112		Best: 0.3751703		Worst: 0		Standard Deviation: 0.06964935
Generation: 899		Mean: 0.3057655		Best: 0.3751848		Worst: 0		Standard Deviation: 0.08914427
Generation: 999		Mean: 0.3175369		Best: 0.3751814		Worst: 0		Standard Deviation: 0.07599334
Generation: 1099		Mean: 0.2994615		Best: 0.3751744		Worst: 0		Standard Deviation: 0.09379786
Generation: 1199		Mean: 0.3138391		Best: 0.3751426		Worst: 0		Standard Deviation: 0.08138882
Generation: 1299		Mean: 0.3178066		Best: 0.3751465		Worst: 0		Standard Deviation: 0.07428778
Generation: 1399		Mean: 0.3262153		Best: 0.3751626		Worst: 0		Standard Deviation: 0.06600221
Generation: 1499		Mean: 0.3074706		Best: 0.3751626		Worst: 0		Standard Deviation: 0.08683414
Generation: 1599		Mean: 0.3185429		Best: 0.3751568		Worst: 0		Standard Deviation: 0.07565448
Generation: 1699		Mean: 0.3206939		Best: 0.3751495		Worst: 0		Standard Deviation: 0.0736962
Generation: 1799		Mean: 0.3000632		Best: 0.3751661		Worst: 0		Standard Deviation: 0.09626383
Generation: 1899		Mean: 0.3145868		Best: 0.3751646		Worst: 0		Standard Deviation: 0.0793586
Generation: 1999		Mean: 0.3153073		Best: 0.3751789		Worst: 0		Standard Deviation: 0.07875011
Generation: 2099		Mean: 0.3150008		Best: 0.3751844		Worst: 0		Standard Deviation: 0.0810772
Generation: 2199		Mean: 0.3093955		Best: 0.3751801		Worst: 0		Standard Deviation: 0.08333313
Generation: 2299		Mean: 0.3042266		Best: 0.3751497		Worst: 0		Standard Deviation: 0.09098287
Generation: 2399		Mean: 0.3186896		Best: 0.3751734		Worst: 0		Standard Deviation: 0.07323416
Generation: 2499		Mean: 0.3173906		Best: 0.3751453		Worst: 0		Standard Deviation: 0.07760436
Generation: 2599		Mean: 0.3148636		Best: 0.375173		Worst: 0		Standard Deviation: 0.07874741
Generation: 2699		Mean: 0.3248591		Best: 0.3751815		Worst: 0		Standard Deviation: 0.06496155
Generation: 2799		Mean: 0.3125791		Best: 0.3751757		Worst: 0		Standard Deviation: 0.08084853
Generation: 2899		Mean: 0.3128713		Best: 0.3751626		Worst: 0		Standard Deviation: 0.0820402
Generation: 2999		Mean: 0.302393		Best: 0.3751835		Worst: 0		Standard Deviation: 0.09726436

Mean: 0.3125816		Best: 0.3751682		Standard Deviation: 0.08156016
