Generation: 99		Mean: 0.2696815		Best: 0.3702032		Worst: 0		Standard Deviation: 0.06005925
Generation: 199		Mean: 0.2628023		Best: 0.3708983		Worst: 0		Standard Deviation: 0.06653668
Generation: 299		Mean: 0.262048		Best: 0.3680378		Worst: 0		Standard Deviation: 0.06624694
Generation: 399		Mean: 0.2565369		Best: 0.3695135		Worst: 0		Standard Deviation: 0.07442226
Generation: 499		Mean: 0.2618431		Best: 0.3708217		Worst: 0		Standard Deviation: 0.06905293
Generation: 599		Mean: 0.2617494		Best: 0.36768		Worst: 0		Standard Deviation: 0.07025582
Generation: 699		Mean: 0.2589897		Best: 0.3705589		Worst: 0		Standard Deviation: 0.07041357
Generation: 799		Mean: 0.269991		Best: 0.3717628		Worst: 0		Standard Deviation: 0.06044493
Generation: 899		Mean: 0.2685253		Best: 0.3694966		Worst: 0		Standard Deviation: 0.06442973
Generation: 999		Mean: 0.2614998		Best: 0.3690714		Worst: 0		Standard Deviation: 0.06957192
Generation: 1099		Mean: 0.2622678		Best: 0.370635		Worst: 0		Standard Deviation: 0.06532768
Generation: 1199		Mean: 0.2600232		Best: 0.3664428		Worst: 0		Standard Deviation: 0.07049604
Generation: 1299		Mean: 0.2579052		Best: 0.3686232		Worst: 0		Standard Deviation: 0.0753644
Generation: 1399		Mean: 0.2669072		Best: 0.369815		Worst: 0		Standard Deviation: 0.06441374
Generation: 1499		Mean: 0.2679392		Best: 0.3706012		Worst: 0		Standard Deviation: 0.06419759
Generation: 1599		Mean: 0.2493007		Best: 0.3690668		Worst: 0		Standard Deviation: 0.08098126
Generation: 1699		Mean: 0.2606017		Best: 0.3703547		Worst: 0		Standard Deviation: 0.07131388
Generation: 1799		Mean: 0.2656693		Best: 0.3669854		Worst: 0		Standard Deviation: 0.06811143
Generation: 1899		Mean: 0.2665348		Best: 0.3716446		Worst: 0		Standard Deviation: 0.06636042
Generation: 1999		Mean: 0.2655646		Best: 0.3722214		Worst: 0		Standard Deviation: 0.0645013
Generation: 2099		Mean: 0.2649575		Best: 0.3729202		Worst: 0		Standard Deviation: 0.0649822
Generation: 2199		Mean: 0.2689053		Best: 0.371724		Worst: 0		Standard Deviation: 0.06000962
Generation: 2299		Mean: 0.2687584		Best: 0.3720368		Worst: 0		Standard Deviation: 0.06092165
Generation: 2399		Mean: 0.2670787		Best: 0.369568		Worst: 0		Standard Deviation: 0.06190271
Generation: 2499		Mean: 0.2600055		Best: 0.3712831		Worst: 0		Standard Deviation: 0.07231794
Generation: 2599		Mean: 0.2600541		Best: 0.3695734		Worst: 0		Standard Deviation: 0.06644856
Generation: 2699		Mean: 0.2772264		Best: 0.3694955		Worst: 0		Standard Deviation: 0.05292565
Generation: 2799		Mean: 0.2580007		Best: 0.3692703		Worst: 0		Standard Deviation: 0.07385532
Generation: 2899		Mean: 0.2499216		Best: 0.3715333		Worst: 0		Standard Deviation: 0.08398205
Generation: 2999		Mean: 0.2642533		Best: 0.3709552		Worst: 0		Standard Deviation: 0.06527346

Mean: 0.2631848		Best: 0.3700932		Standard Deviation: 0.06750403
