Generation: 99		Mean: 0.1973792		Best: 0.2985107		Worst: 0		Standard Deviation: 0.04829564
Generation: 199		Mean: 0.1926266		Best: 0.2931499		Worst: 0		Standard Deviation: 0.06265692
Generation: 299		Mean: 0.1920795		Best: 0.2939186		Worst: 0		Standard Deviation: 0.05698692
Generation: 399		Mean: 0.1649421		Best: 0.2799998		Worst: 0		Standard Deviation: 0.08003964
Generation: 499		Mean: 0.1701688		Best: 0.2948068		Worst: 0		Standard Deviation: 0.08193987
Generation: 599		Mean: 0.1803352		Best: 0.2793562		Worst: 0		Standard Deviation: 0.06351601
Generation: 699		Mean: 0.1730246		Best: 0.3000982		Worst: 0		Standard Deviation: 0.08687915
Generation: 799		Mean: 0.1772153		Best: 0.2722646		Worst: 0		Standard Deviation: 0.06768209
Generation: 899		Mean: 0.1877375		Best: 0.2996663		Worst: 0		Standard Deviation: 0.06564046
Generation: 999		Mean: 0.1637238		Best: 0.2912499		Worst: 0		Standard Deviation: 0.08546216
Generation: 1099		Mean: 0.1878359		Best: 0.3109876		Worst: 0		Standard Deviation: 0.07316671
Generation: 1199		Mean: 0.1864864		Best: 0.2892254		Worst: 0		Standard Deviation: 0.06216985
Generation: 1299		Mean: 0.190536		Best: 0.3051767		Worst: 0		Standard Deviation: 0.06155137
Generation: 1399		Mean: 0.1514841		Best: 0.2751418		Worst: 0		Standard Deviation: 0.0908905
Generation: 1499		Mean: 0.1907363		Best: 0.2823262		Worst: 0		Standard Deviation: 0.05612643
Generation: 1599		Mean: 0.2023289		Best: 0.2826306		Worst: 0		Standard Deviation: 0.0362692
Generation: 1699		Mean: 0.1856294		Best: 0.2941895		Worst: 0		Standard Deviation: 0.07501559
Generation: 1799		Mean: 0.1550912		Best: 0.2785725		Worst: 0		Standard Deviation: 0.08685108
Generation: 1899		Mean: 0.1884207		Best: 0.3052639		Worst: 0		Standard Deviation: 0.06310914
Generation: 1999		Mean: 0.2007878		Best: 0.2983468		Worst: 0		Standard Deviation: 0.06012169
Generation: 2099		Mean: 0.1915254		Best: 0.293386		Worst: 0		Standard Deviation: 0.05998884
Generation: 2199		Mean: 0.2005527		Best: 0.2873842		Worst: 0		Standard Deviation: 0.04429965
Generation: 2299		Mean: 0.2073844		Best: 0.2877262		Worst: 0		Standard Deviation: 0.03975087
Generation: 2399		Mean: 0.2082952		Best: 0.2988418		Worst: 0		Standard Deviation: 0.04010373
Generation: 2499		Mean: 0.1710257		Best: 0.2949612		Worst: 0		Standard Deviation: 0.08233088
Generation: 2599		Mean: 0.1835169		Best: 0.2879957		Worst: 0		Standard Deviation: 0.07055561
Generation: 2699		Mean: 0.1920597		Best: 0.2951251		Worst: 0		Standard Deviation: 0.06474283
Generation: 2799		Mean: 0.201957		Best: 0.2915142		Worst: 0		Standard Deviation: 0.0441461
Generation: 2899		Mean: 0.1921906		Best: 0.2880827		Worst: 0		Standard Deviation: 0.05637991
Generation: 2999		Mean: 0.171277		Best: 0.2690607		Worst: 0		Standard Deviation: 0.06508528

Mean: 0.1852785		Best: 0.290632		Standard Deviation: 0.0643918
