Generation: 99		Mean: 0.209306		Best: 0.3431627		Worst: 0		Standard Deviation: 0.1164084
Generation: 199		Mean: 0.2061176		Best: 0.3077278		Worst: 0		Standard Deviation: 0.07853241
Generation: 299		Mean: 0.1684937		Best: 0.2773526		Worst: 0		Standard Deviation: 0.09163999
Generation: 399		Mean: 0.2501132		Best: 0.3710991		Worst: 0		Standard Deviation: 0.09466059
Generation: 499		Mean: 0.1821711		Best: 0.3017865		Worst: 0		Standard Deviation: 0.09846976
Generation: 599		Mean: 0.25727		Best: 0.372699		Worst: 0		Standard Deviation: 0.1004152
Generation: 699		Mean: 0.1569573		Best: 0.3048298		Worst: 0		Standard Deviation: 0.1150057
Generation: 799		Mean: 0.1893539		Best: 0.3177435		Worst: 0		Standard Deviation: 0.09820317
Generation: 899		Mean: 0.191008		Best: 0.3134457		Worst: 0		Standard Deviation: 0.08602817
Generation: 999		Mean: 0.2001516		Best: 0.3437509		Worst: 0		Standard Deviation: 0.1037916
Generation: 1099		Mean: 0.2433367		Best: 0.3542278		Worst: 0		Standard Deviation: 0.08669717
Generation: 1199		Mean: 0.2345458		Best: 0.3314493		Worst: 0		Standard Deviation: 0.08729474
Generation: 1299		Mean: 0.1424836		Best: 0.2882963		Worst: 0		Standard Deviation: 0.1137693
Generation: 1399		Mean: 0.1675265		Best: 0.2542355		Worst: 0		Standard Deviation: 0.05867539
Generation: 1499		Mean: 0.1843216		Best: 0.3130839		Worst: 0		Standard Deviation: 0.1060204
Generation: 1599		Mean: 0.214312		Best: 0.3274036		Worst: 0		Standard Deviation: 0.08845994
Generation: 1699		Mean: 0.1563966		Best: 0.3284492		Worst: 0		Standard Deviation: 0.1341976
Generation: 1799		Mean: 0.2338364		Best: 0.3670523		Worst: 0		Standard Deviation: 0.1060987
Generation: 1899		Mean: 0.2083505		Best: 0.3309188		Worst: 0		Standard Deviation: 0.08695966
Generation: 1999		Mean: 0.1985446		Best: 0.3316999		Worst: 0		Standard Deviation: 0.108318
Generation: 2099		Mean: 0.2032124		Best: 0.3376218		Worst: 0		Standard Deviation: 0.1148959
Generation: 2199		Mean: 0.1691729		Best: 0.2939461		Worst: 0		Standard Deviation: 0.09899228
Generation: 2299		Mean: 0.1892369		Best: 0.3293954		Worst: 0		Standard Deviation: 0.1111041
Generation: 2399		Mean: 0.2252894		Best: 0.338693		Worst: 0		Standard Deviation: 0.09088752
Generation: 2499		Mean: 0.2419499		Best: 0.314408		Worst: 0		Standard Deviation: 0.0578639
Generation: 2599		Mean: 0.2336836		Best: 0.3281172		Worst: 0		Standard Deviation: 0.0783554
Generation: 2699		Mean: 0.1820254		Best: 0.3239236		Worst: 0		Standard Deviation: 0.1117462
Generation: 2799		Mean: 0.2304927		Best: 0.3559286		Worst: 0		Standard Deviation: 0.100899
Generation: 2899		Mean: 0.2672827		Best: 0.3612578		Worst: 0		Standard Deviation: 0.07762185
Generation: 2999		Mean: 0.1882539		Best: 0.3254037		Worst: 0		Standard Deviation: 0.1181387

Mean: 0.2041732		Best: 0.3263036		Standard Deviation: 0.09733836
