Generation: 99		Mean: 0.2067529		Best: 0.3324531		Worst: 0		Standard Deviation: 0.09543245
Generation: 199		Mean: 0.1544525		Best: 0.339362		Worst: 0		Standard Deviation: 0.1451166
Generation: 299		Mean: 0.2370834		Best: 0.3644686		Worst: 0		Standard Deviation: 0.1097927
Generation: 399		Mean: 0.1842796		Best: 0.2988485		Worst: 0		Standard Deviation: 0.09029384
Generation: 499		Mean: 0.1862758		Best: 0.3496524		Worst: 0		Standard Deviation: 0.1300524
Generation: 599		Mean: 0.1982883		Best: 0.3149924		Worst: 0		Standard Deviation: 0.09533194
Generation: 699		Mean: 0.2639582		Best: 0.3700304		Worst: 0		Standard Deviation: 0.08485287
Generation: 799		Mean: 0.1642985		Best: 0.3459743		Worst: 0		Standard Deviation: 0.1380109
Generation: 899		Mean: 0.2481738		Best: 0.3700613		Worst: 0		Standard Deviation: 0.09318775
Generation: 999		Mean: 0.1903433		Best: 0.3247973		Worst: 0		Standard Deviation: 0.106241
Generation: 1099		Mean: 0.2305156		Best: 0.3508532		Worst: 0		Standard Deviation: 0.1003107
Generation: 1199		Mean: 0.1767767		Best: 0.3447444		Worst: 0		Standard Deviation: 0.1270563
Generation: 1299		Mean: 0.2053003		Best: 0.3271118		Worst: 0		Standard Deviation: 0.09117824
Generation: 1399		Mean: 0.1727727		Best: 0.2999475		Worst: 0		Standard Deviation: 0.09351264
Generation: 1499		Mean: 0.1754123		Best: 0.3290634		Worst: 0		Standard Deviation: 0.119343
Generation: 1599		Mean: 0.1621948		Best: 0.3417657		Worst: 0		Standard Deviation: 0.1459754
Generation: 1699		Mean: 0.18991		Best: 0.3266644		Worst: 0		Standard Deviation: 0.1034968
Generation: 1799		Mean: 0.1809239		Best: 0.3071771		Worst: 0		Standard Deviation: 0.1093013
Generation: 1899		Mean: 0.1847118		Best: 0.3052055		Worst: 0		Standard Deviation: 0.0915544
Generation: 1999		Mean: 0.2322409		Best: 0.3354824		Worst: 0		Standard Deviation: 0.07624058
Generation: 2099		Mean: 0.2483103		Best: 0.3757779		Worst: 0		Standard Deviation: 0.1025509
Generation: 2199		Mean: 0.228559		Best: 0.3379977		Worst: 0		Standard Deviation: 0.08498577
Generation: 2299		Mean: 0.1862517		Best: 0.3612116		Worst: 0		Standard Deviation: 0.1419568
Generation: 2399		Mean: 0.2164848		Best: 0.3595232		Worst: 0		Standard Deviation: 0.1223198
Generation: 2499		Mean: 0.153977		Best: 0.3094312		Worst: 0		Standard Deviation: 0.1167901
Generation: 2599		Mean: 0.2550049		Best: 0.3586566		Worst: 0		Standard Deviation: 0.08225397
Generation: 2699		Mean: 0.1587514		Best: 0.3047738		Worst: 0		Standard Deviation: 0.1204194
Generation: 2799		Mean: 0.1864832		Best: 0.3008619		Worst: 0		Standard Deviation: 0.09064607
Generation: 2899		Mean: 0.2325579		Best: 0.3327996		Worst: 0		Standard Deviation: 0.07555038
Generation: 2999		Mean: 0.215762		Best: 0.316602		Worst: 0		Standard Deviation: 0.07693353

Mean: 0.2008936		Best: 0.334543		Standard Deviation: 0.1053563
