Generation: 99		Mean: 0.2546166		Best: 0.3737862		Worst: 0		Standard Deviation: 0.1184929
Generation: 199		Mean: 0.2806917		Best: 0.3715595		Worst: 0		Standard Deviation: 0.09393696
Generation: 299		Mean: 0.2900626		Best: 0.373203		Worst: 0		Standard Deviation: 0.0736567
Generation: 399		Mean: 0.272072		Best: 0.3727115		Worst: 0		Standard Deviation: 0.09637567
Generation: 499		Mean: 0.3200865		Best: 0.3709642		Worst: 0		Standard Deviation: 0.0459415
Generation: 599		Mean: 0.2923611		Best: 0.372926		Worst: 0		Standard Deviation: 0.07206246
Generation: 699		Mean: 0.3181657		Best: 0.3737056		Worst: 0		Standard Deviation: 0.04407663
Generation: 799		Mean: 0.2961423		Best: 0.3689151		Worst: 0		Standard Deviation: 0.06810838
Generation: 899		Mean: 0.2912986		Best: 0.3733779		Worst: 0		Standard Deviation: 0.08080053
Generation: 999		Mean: 0.3244428		Best: 0.3732306		Worst: 0		Standard Deviation: 0.0372662
Generation: 1099		Mean: 0.2684811		Best: 0.3732705		Worst: 0		Standard Deviation: 0.1081849
Generation: 1199		Mean: 0.2985885		Best: 0.3704098		Worst: 0		Standard Deviation: 0.07364647
Generation: 1299		Mean: 0.2950698		Best: 0.3726683		Worst: 0		Standard Deviation: 0.07245223
Generation: 1399		Mean: 0.3069224		Best: 0.3717841		Worst: 0		Standard Deviation: 0.06130771
Generation: 1499		Mean: 0.2893681		Best: 0.3725038		Worst: 0		Standard Deviation: 0.08676749
Generation: 1599		Mean: 0.266547		Best: 0.3728355		Worst: 0		Standard Deviation: 0.1078128
Generation: 1699		Mean: 0.3203042		Best: 0.3706251		Worst: 0		Standard Deviation: 0.04655614
Generation: 1799		Mean: 0.309224		Best: 0.3694165		Worst: 0		Standard Deviation: 0.05577455
Generation: 1899		Mean: 0.2563306		Best: 0.3715925		Worst: 0		Standard Deviation: 0.111464
Generation: 1999		Mean: 0.273503		Best: 0.3730962		Worst: 0		Standard Deviation: 0.0960779
Generation: 2099		Mean: 0.3278274		Best: 0.3722635		Worst: 0.2169401		Standard Deviation: 0.03610692
Generation: 2199		Mean: 0.2677864		Best: 0.3707992		Worst: 0		Standard Deviation: 0.109275
Generation: 2299		Mean: 0.261676		Best: 0.369722		Worst: 0		Standard Deviation: 0.1055074
Generation: 2399		Mean: 0.2884004		Best: 0.3719201		Worst: 0		Standard Deviation: 0.08068085
Generation: 2499		Mean: 0.2911001		Best: 0.3734592		Worst: 0		Standard Deviation: 0.07420211
Generation: 2599		Mean: 0.2585112		Best: 0.3714221		Worst: 0		Standard Deviation: 0.1246103
Generation: 2699		Mean: 0.2495252		Best: 0.3723234		Worst: 0		Standard Deviation: 0.1283239
Generation: 2799		Mean: 0.2724274		Best: 0.3697523		Worst: 0		Standard Deviation: 0.09466509
Generation: 2899		Mean: 0.2605089		Best: 0.3707391		Worst: 0		Standard Deviation: 0.1148604
Generation: 2999		Mean: 0.2856071		Best: 0.3742241		Worst: 0		Standard Deviation: 0.07755268

Mean: 0.2862549		Best: 0.3719735		Standard Deviation: 0.08321823
